# Blender v2.77 (sub 0) OBJ File: 'scena.blend'
# www.blender.org
mtllib scena.mtl
o Crate.003_Cube.001
v 5.600000 2.000000 -4.585786
v 5.600000 4.000000 -4.585786
v 4.185787 2.000000 -6.000000
v 4.185787 4.000000 -6.000000
v 7.014214 2.000000 -6.000000
v 7.014214 4.000000 -6.000000
v 5.600000 2.000000 -7.414214
v 5.600000 4.000000 -7.414214
vt 0.0000 0.0000
vt 1.0000 0.0000
vt 1.0000 1.0000
vt 0.0000 1.0000
vt 0.0000 0.0000
vt 1.0000 0.0000
vt 1.0000 1.0000
vt 0.0000 1.0000
vt 0.0000 0.0000
vt 1.0000 0.0000
vt 1.0000 1.0000
vt 0.0000 1.0000
vt 0.0000 0.0000
vt 1.0000 0.0000
vt 1.0000 1.0000
vt 0.0000 1.0000
vt 0.0000 0.0000
vt 1.0000 0.0000
vt 1.0000 1.0000
vt 0.0000 1.0000
vn -0.7071 0.0000 0.7071
vn -0.7071 0.0000 -0.7071
vn 0.7071 0.0000 -0.7071
vn 0.7071 0.0000 0.7071
vn 0.0000 -1.0000 0.0000
vn 0.0000 1.0000 0.0000
usemtl CrateMaterial
s off
f 2/1/1 4/2/1 3/3/1 1/4/1
f 4/5/2 8/6/2 7/7/2 3/8/2
f 8/9/3 6/10/3 5/11/3 7/12/3
f 6/13/4 2/14/4 1/15/4 5/16/4
f 1/17/5 3/18/5 7/7/5 5/16/5
f 6/13/6 8/6/6 4/19/6 2/20/6
o Crate.002_Cube.001
v 5.602327 0.000000 -6.318287
v 5.602327 2.000000 -6.318287
v 4.918287 0.000000 -8.197673
v 4.918287 2.000000 -8.197673
v 7.481712 0.000000 -7.002327
v 7.481712 2.000000 -7.002327
v 6.797672 0.000000 -8.881713
v 6.797672 2.000000 -8.881713
vt 0.0000 0.0000
vt 1.0000 0.0000
vt 1.0000 1.0000
vt 0.0000 1.0000
vt 0.0000 0.0000
vt 1.0000 0.0000
vt 1.0000 1.0000
vt 0.0000 1.0000
vt 0.0000 0.0000
vt 1.0000 0.0000
vt 1.0000 1.0000
vt 0.0000 1.0000
vt 0.0000 0.0000
vt 1.0000 0.0000
vt 1.0000 1.0000
vt 0.0000 1.0000
vt 0.0000 0.0000
vt 1.0000 0.0000
vt 1.0000 1.0000
vt 0.0000 1.0000
vn -0.9397 0.0000 0.3420
vn -0.3420 0.0000 -0.9397
vn 0.9397 0.0000 -0.3420
vn 0.3420 0.0000 0.9397
vn 0.0000 -1.0000 0.0000
vn 0.0000 1.0000 0.0000
usemtl CrateMaterial
s off
f 10/21/7 12/22/7 11/23/7 9/24/7
f 12/25/8 16/26/8 15/27/8 11/28/8
f 16/29/9 14/30/9 13/31/9 15/32/9
f 14/33/10 10/34/10 9/35/10 13/36/10
f 9/37/11 11/38/11 15/27/11 13/36/11
f 14/33/12 16/26/12 12/39/12 10/40/12
o Crate.001_Cube.001
v 7.728926 0.000000 -5.483689
v 7.728926 2.000000 -5.483689
v 6.883689 0.000000 -3.671074
v 6.883689 2.000000 -3.671074
v 5.916311 0.000000 -6.328926
v 5.916311 2.000000 -6.328926
v 5.071074 0.000000 -4.516311
v 5.071074 2.000000 -4.516311
vt 0.0000 0.0000
vt 1.0000 0.0000
vt 1.0000 1.0000
vt 0.0000 1.0000
vt 0.0000 0.0000
vt 1.0000 0.0000
vt 1.0000 1.0000
vt 0.0000 1.0000
vt 0.0000 0.0000
vt 1.0000 0.0000
vt 1.0000 1.0000
vt 0.0000 1.0000
vt 0.0000 0.0000
vt 1.0000 0.0000
vt 1.0000 1.0000
vt 0.0000 1.0000
vt 0.0000 0.0000
vt 1.0000 0.0000
vt 1.0000 1.0000
vt 0.0000 1.0000
vn 0.9063 0.0000 0.4226
vn -0.4226 0.0000 0.9063
vn -0.9063 0.0000 -0.4226
vn 0.4226 0.0000 -0.9063
vn 0.0000 -1.0000 0.0000
vn 0.0000 1.0000 0.0000
usemtl CrateMaterial
s off
f 18/41/13 20/42/13 19/43/13 17/44/13
f 20/45/14 24/46/14 23/47/14 19/48/14
f 24/49/15 22/50/15 21/51/15 23/52/15
f 22/53/16 18/54/16 17/55/16 21/56/16
f 17/57/17 19/58/17 23/47/17 21/56/17
f 22/53/18 24/46/18 20/59/18 18/60/18
o Crate_Cube.001
v 3.000000 0.000000 -5.000000
v 3.000000 2.000000 -5.000000
v 3.000000 0.000000 -7.000000
v 3.000000 2.000000 -7.000000
v 5.000000 0.000000 -5.000000
v 5.000000 2.000000 -5.000000
v 5.000000 0.000000 -7.000000
v 5.000000 2.000000 -7.000000
vt 0.0000 0.0000
vt 1.0000 0.0000
vt 1.0000 1.0000
vt 0.0000 1.0000
vt 0.0000 0.0000
vt 1.0000 0.0000
vt 1.0000 1.0000
vt 0.0000 1.0000
vt 0.0000 0.0000
vt 1.0000 0.0000
vt 1.0000 1.0000
vt 0.0000 1.0000
vt 0.0000 0.0000
vt 1.0000 0.0000
vt 1.0000 1.0000
vt 0.0000 1.0000
vt 0.0000 0.0000
vt 1.0000 0.0000
vt 1.0000 1.0000
vt 0.0000 1.0000
vn -1.0000 0.0000 0.0000
vn 0.0000 0.0000 -1.0000
vn 1.0000 0.0000 0.0000
vn 0.0000 0.0000 1.0000
vn 0.0000 -1.0000 0.0000
vn 0.0000 1.0000 0.0000
usemtl CrateMaterial
s off
f 26/61/19 28/62/19 27/63/19 25/64/19
f 28/65/20 32/66/20 31/67/20 27/68/20
f 32/69/21 30/70/21 29/71/21 31/72/21
f 30/73/22 26/74/22 25/75/22 29/76/22
f 25/77/23 27/78/23 31/67/23 29/76/23
f 30/73/24 32/66/24 28/79/24 26/80/24
o PostBase_Cylinder
v -1.000000 0.000000 -6.200000
v -1.000000 4.000000 -6.200000
v -0.960982 0.000000 -6.196157
v -0.960982 4.000000 -6.196157
v -0.923463 0.000000 -6.184776
v -0.923463 4.000000 -6.184776
v -0.888886 0.000000 -6.166294
v -0.888886 4.000000 -6.166294
v -0.858579 0.000000 -6.141421
v -0.858579 4.000000 -6.141421
v -0.833706 0.000000 -6.111114
v -0.833706 4.000000 -6.111114
v -0.815224 0.000000 -6.076537
v -0.815224 4.000000 -6.076537
v -0.803843 0.000000 -6.039018
v -0.803843 4.000000 -6.039018
v -0.800000 0.000000 -6.000000
v -0.800000 4.000000 -6.000000
v -0.803843 0.000000 -5.960982
v -0.803843 4.000000 -5.960982
v -0.815224 0.000000 -5.923463
v -0.815224 4.000000 -5.923463
v -0.833706 0.000000 -5.888886
v -0.833706 4.000000 -5.888886
v -0.858579 0.000000 -5.858579
v -0.858579 4.000000 -5.858579
v -0.888886 0.000000 -5.833706
v -0.888886 4.000000 -5.833706
v -0.923463 0.000000 -5.815224
v -0.923463 4.000000 -5.815224
v -0.960982 0.000000 -5.803843
v -0.960982 4.000000 -5.803843
v -1.000000 0.000000 -5.800000
v -1.000000 4.000000 -5.800000
v -1.039018 0.000000 -5.803843
v -1.039018 4.000000 -5.803843
v -1.076537 0.000000 -5.815224
v -1.076537 4.000000 -5.815224
v -1.111114 0.000000 -5.833706
v -1.111114 4.000000 -5.833706
v -1.141421 0.000000 -5.858579
v -1.141421 4.000000 -5.858579
v -1.166294 0.000000 -5.888886
v -1.166294 4.000000 -5.888886
v -1.184776 0.000000 -5.923463
v -1.184776 4.000000 -5.923463
v -1.196157 0.000000 -5.960982
v -1.196157 4.000000 -5.960982
v -1.200000 0.000000 -6.000000
v -1.200000 4.000000 -6.000000
v -1.196157 0.000000 -6.039018
v -1.196157 4.000000 -6.039018
v -1.184776 0.000000 -6.076537
v -1.184776 4.000000 -6.076537
v -1.166294 0.000000 -6.111114
v -1.166294 4.000000 -6.111114
v -1.141421 0.000000 -6.141421
v -1.141421 4.000000 -6.141421
v -1.111114 0.000000 -6.166294
v -1.111114 4.000000 -6.166294
v -1.076536 0.000000 -6.184776
v -1.076536 4.000000 -6.184776
v -1.039018 0.000000 -6.196157
v -1.039018 4.000000 -6.196157
vn 0.0000 -0.6857 -0.7279
vn 0.0000 0.6857 -0.7279
vn 0.1420 0.6857 -0.7139
vn 0.1420 -0.6857 -0.7139
vn 0.2785 0.6857 -0.6725
vn 0.2785 -0.6857 -0.6725
vn 0.4044 0.6857 -0.6052
vn 0.4044 -0.6857 -0.6052
vn 0.5147 0.6857 -0.5147
vn 0.5147 -0.6857 -0.5147
vn 0.6052 0.6857 -0.4044
vn 0.6052 -0.6857 -0.4044
vn 0.6725 0.6857 -0.2785
vn 0.6725 -0.6857 -0.2785
vn 0.7139 0.6857 -0.1420
vn 0.7139 -0.6857 -0.1420
vn 0.7279 0.6857 0.0000
vn 0.7279 -0.6857 0.0000
vn 0.7139 0.6857 0.1420
vn 0.7139 -0.6857 0.1420
vn 0.6725 0.6857 0.2785
vn 0.6725 -0.6857 0.2785
vn 0.6052 0.6857 0.4044
vn 0.6052 -0.6857 0.4044
vn 0.5147 0.6857 0.5147
vn 0.5147 -0.6857 0.5147
vn 0.4044 0.6857 0.6052
vn 0.4044 -0.6857 0.6052
vn 0.2785 0.6857 0.6725
vn 0.2785 -0.6857 0.6725
vn 0.1420 0.6857 0.7139
vn 0.1420 -0.6857 0.7139
vn 0.0000 0.6857 0.7279
vn 0.0000 -0.6857 0.7279
vn -0.1420 0.6857 0.7139
vn -0.1420 -0.6857 0.7139
vn -0.2785 0.6857 0.6725
vn -0.2785 -0.6857 0.6725
vn -0.4044 0.6857 0.6052
vn -0.4044 -0.6857 0.6052
vn -0.5147 0.6857 0.5147
vn -0.5147 -0.6857 0.5147
vn -0.6052 0.6857 0.4044
vn -0.6052 -0.6857 0.4044
vn -0.6725 0.6857 0.2785
vn -0.6725 -0.6857 0.2785
vn -0.7139 0.6857 0.1420
vn -0.7139 -0.6857 0.1420
vn -0.7279 0.6857 0.0000
vn -0.7279 -0.6857 0.0000
vn -0.7139 0.6857 -0.1420
vn -0.7139 -0.6857 -0.1420
vn -0.6725 0.6857 -0.2785
vn -0.6725 -0.6857 -0.2785
vn -0.6052 0.6857 -0.4044
vn -0.6052 -0.6857 -0.4044
vn -0.5147 0.6857 -0.5147
vn -0.5147 -0.6857 -0.5147
vn -0.4044 0.6857 -0.6052
vn -0.4044 -0.6857 -0.6052
vn -0.2785 0.6857 -0.6725
vn -0.2785 -0.6857 -0.6725
vn -0.1420 0.6857 -0.7139
vn -0.1420 -0.6857 -0.7139
usemtl Walls
s 1
f 33//25 34//26 36//27 35//28
f 35//28 36//27 38//29 37//30
f 37//30 38//29 40//31 39//32
f 39//32 40//31 42//33 41//34
f 41//34 42//33 44//35 43//36
f 43//36 44//35 46//37 45//38
f 45//38 46//37 48//39 47//40
f 47//40 48//39 50//41 49//42
f 49//42 50//41 52//43 51//44
f 51//44 52//43 54//45 53//46
f 53//46 54//45 56//47 55//48
f 55//48 56//47 58//49 57//50
f 57//50 58//49 60//51 59//52
f 59//52 60//51 62//53 61//54
f 61//54 62//53 64//55 63//56
f 63//56 64//55 66//57 65//58
f 65//58 66//57 68//59 67//60
f 67//60 68//59 70//61 69//62
f 69//62 70//61 72//63 71//64
f 71//64 72//63 74//65 73//66
f 73//66 74//65 76//67 75//68
f 75//68 76//67 78//69 77//70
f 77//70 78//69 80//71 79//72
f 79//72 80//71 82//73 81//74
f 81//74 82//73 84//75 83//76
f 83//76 84//75 86//77 85//78
f 85//78 86//77 88//79 87//80
f 87//80 88//79 90//81 89//82
f 89//82 90//81 92//83 91//84
f 91//84 92//83 94//85 93//86
f 36//27 34//26 96//87 94//85 92//83 90//81 88//79 86//77 84//75 82//73 80//71 78//69 76//67 74//65 72//63 70//61 68//59 66//57 64//55 62//53 60//51 58//49 56//47 54//45 52//43 50//41 48//39 46//37 44//35 42//33 40//31 38//29
f 93//86 94//85 96//87 95//88
f 95//88 96//87 34//26 33//25
f 33//25 35//28 37//30 39//32 41//34 43//36 45//38 47//40 49//42 51//44 53//46 55//48 57//50 59//52 61//54 63//56 65//58 67//60 69//62 71//64 73//66 75//68 77//70 79//72 81//74 83//76 85//78 87//80 89//82 91//84 93//86 95//88
o PostMirror_Icosphere
v -1.000000 3.000000 -6.000000
v -0.276393 3.552780 -5.474275
v -1.276388 3.552780 -5.149351
v -1.894426 3.552784 -6.000000
v -1.276388 3.552780 -6.850649
v -0.276393 3.552780 -6.525725
v -0.723612 4.447220 -5.149351
v -1.723607 4.447219 -5.474275
v -1.723607 4.447219 -6.525725
v -0.723612 4.447220 -6.850649
v -0.105574 4.447216 -6.000000
v -1.000000 5.000000 -6.000000
v -1.257936 3.449315 -5.206140
v -1.232821 3.342481 -5.283437
v -1.200688 3.239597 -5.382334
v -1.162456 3.149346 -5.500005
v -1.120413 3.079045 -5.629402
v -1.077607 3.032050 -5.761147
v -1.036848 3.007135 -5.886592
v -0.903529 3.007135 -5.929911
v -0.796819 3.032050 -5.852382
v -0.684749 3.079045 -5.770960
v -0.574677 3.149346 -5.690989
v -0.474580 3.239597 -5.618265
v -0.390453 3.342481 -5.557144
v -0.324700 3.449315 -5.509372
v -0.361548 3.523013 -5.395962
v -0.468059 3.497698 -5.318287
v -0.594992 3.480428 -5.247662
v -0.737131 3.474262 -5.190989
v -0.885436 3.480428 -5.153289
v -1.029639 3.497698 -5.135816
v -1.161465 3.523012 -5.136049
v -0.228229 3.523013 -6.420538
v -0.187271 3.497699 -6.295238
v -0.159327 3.480429 -6.152694
v -0.149352 3.474264 -6.000000
v -0.159327 3.480429 -5.847306
v -0.187271 3.497699 -5.704762
v -0.228229 3.523013 -5.579462
v -0.903529 3.007135 -6.070089
v -0.796819 3.032050 -6.147618
v -0.684749 3.079045 -6.229040
v -0.574677 3.149346 -6.309011
v -0.474580 3.239597 -6.381735
v -0.390453 3.342481 -6.442856
v -0.324700 3.449315 -6.490628
v -1.834716 3.449319 -6.000000
v -1.753442 3.342485 -6.000000
v -1.649456 3.239601 -6.000000
v -1.525730 3.149348 -6.000000
v -1.389673 3.079047 -6.000000
v -1.251147 3.032051 -6.000000
v -1.119245 3.007135 -6.000000
v -1.377183 3.523012 -5.206139
v -1.483971 3.497698 -5.283435
v -1.590366 3.480428 -5.382332
v -1.688189 3.474264 -5.500003
v -1.769872 3.480430 -5.629400
v -1.831051 3.497701 -5.761147
v -1.871565 3.523016 -5.886592
v -1.257936 3.449315 -6.793860
v -1.232821 3.342481 -6.716563
v -1.200688 3.239597 -6.617666
v -1.162456 3.149346 -6.499995
v -1.120413 3.079045 -6.370598
v -1.077607 3.032050 -6.238853
v -1.036848 3.007135 -6.113408
v -1.871565 3.523016 -6.113408
v -1.831051 3.497701 -6.238853
v -1.769872 3.480430 -6.370600
v -1.688189 3.474264 -6.499997
v -1.590366 3.480428 -6.617668
v -1.483971 3.497698 -6.716565
v -1.377183 3.523012 -6.793861
v -1.161465 3.523012 -6.863951
v -1.029639 3.497698 -6.864184
v -0.885436 3.480428 -6.846711
v -0.737131 3.474262 -6.809011
v -0.594992 3.480428 -6.752338
v -0.468059 3.497698 -6.681712
v -0.361547 3.523013 -6.604038
v -0.068812 4.357738 -5.929911
v -0.043374 4.251150 -5.852382
v -0.035289 4.129892 -5.770959
v -0.048942 4.000000 -5.690988
v -0.084902 3.870107 -5.618263
v -0.139302 3.748849 -5.557142
v -0.205453 3.642259 -5.509371
v -0.205453 3.642259 -6.490629
v -0.139302 3.748849 -6.442858
v -0.084902 3.870107 -6.381737
v -0.048942 4.000000 -6.309012
v -0.035289 4.129893 -6.229041
v -0.043374 4.251150 -6.147618
v -0.068812 4.357738 -6.070089
v -0.778911 4.357741 -5.092729
v -0.844785 4.251152 -5.044578
v -0.919724 4.129893 -5.011727
v -1.000000 4.000000 -5.000000
v -1.080276 3.870106 -5.011727
v -1.155215 3.748848 -5.044578
v -1.221089 3.642259 -5.092729
v -0.287850 3.642259 -5.395961
v -0.312841 3.748848 -5.318285
v -0.354161 3.870106 -5.247657
v -0.412214 4.000000 -5.190983
v -0.484054 4.129894 -5.153284
v -0.563993 4.251152 -5.135812
v -0.645591 4.357741 -5.136047
v -1.794547 4.357740 -5.509371
v -1.860698 4.251151 -5.557142
v -1.915098 4.129893 -5.618263
v -1.951058 4.000000 -5.690988
v -1.964711 3.870107 -5.770959
v -1.956626 3.748851 -5.852382
v -1.931188 3.642262 -5.929911
v -1.354409 3.642258 -5.136047
v -1.436007 3.748848 -5.135812
v -1.515946 3.870106 -5.153284
v -1.587786 4.000000 -5.190983
v -1.645839 4.129894 -5.247658
v -1.687159 4.251152 -5.318285
v -1.712150 4.357741 -5.395961
v -1.712150 4.357741 -6.604039
v -1.687159 4.251152 -6.681715
v -1.645839 4.129894 -6.752343
v -1.587785 4.000000 -6.809017
v -1.515946 3.870106 -6.846716
v -1.436007 3.748848 -6.864188
v -1.354409 3.642258 -6.863953
v -1.931188 3.642262 -6.070089
v -1.956626 3.748851 -6.147618
v -1.964711 3.870107 -6.229041
v -1.951058 4.000000 -6.309012
v -1.915098 4.129893 -6.381737
v -1.860698 4.251151 -6.442858
v -1.794547 4.357740 -6.490629
v -0.645591 4.357741 -6.863953
v -0.563993 4.251152 -6.864188
v -0.484054 4.129894 -6.846716
v -0.412214 4.000000 -6.809017
v -0.354161 3.870106 -6.752342
v -0.312841 3.748848 -6.681715
v -0.287850 3.642259 -6.604039
v -1.221089 3.642259 -6.907271
v -1.155215 3.748848 -6.955422
v -1.080276 3.870106 -6.988273
v -1.000000 4.000000 -7.000000
v -0.919724 4.129893 -6.988273
v -0.844785 4.251152 -6.955422
v -0.778911 4.357741 -6.907271
v -0.128435 4.476984 -5.886592
v -0.168949 4.502299 -5.761147
v -0.230128 4.519570 -5.629400
v -0.311811 4.525736 -5.500003
v -0.409634 4.519572 -5.382332
v -0.516029 4.502302 -5.283435
v -0.622817 4.476988 -5.206139
v -0.838535 4.476988 -5.136049
v -0.970361 4.502302 -5.135816
v -1.114564 4.519573 -5.153289
v -1.262869 4.525738 -5.190989
v -1.405008 4.519572 -5.247662
v -1.531941 4.502302 -5.318288
v -1.638453 4.476987 -5.395962
v -1.771771 4.476987 -5.579462
v -1.812729 4.502301 -5.704762
v -1.840673 4.519571 -5.847306
v -1.850648 4.525736 -6.000000
v -1.840673 4.519571 -6.152694
v -1.812729 4.502301 -6.295238
v -1.771771 4.476987 -6.420538
v -1.638453 4.476987 -6.604038
v -1.531941 4.502302 -6.681713
v -1.405008 4.519572 -6.752338
v -1.262869 4.525738 -6.809011
v -1.114564 4.519572 -6.846711
v -0.970361 4.502302 -6.864184
v -0.838535 4.476988 -6.863951
v -0.622817 4.476988 -6.793861
v -0.516029 4.502302 -6.716565
v -0.409634 4.519572 -6.617668
v -0.311811 4.525736 -6.499997
v -0.230128 4.519570 -6.370600
v -0.168949 4.502299 -6.238853
v -0.128435 4.476984 -6.113408
v -0.963152 4.992865 -5.886592
v -0.922393 4.967950 -5.761147
v -0.879587 4.920955 -5.629402
v -0.837544 4.850655 -5.500005
v -0.799312 4.760403 -5.382334
v -0.767178 4.657519 -5.283437
v -0.742063 4.550685 -5.206140
v -0.165284 4.550681 -6.000000
v -0.246558 4.657515 -6.000000
v -0.350544 4.760399 -6.000000
v -0.474270 4.850652 -6.000000
v -0.610327 4.920953 -6.000000
v -0.748853 4.967949 -6.000000
v -0.880755 4.992865 -6.000000
v -1.096471 4.992865 -5.929911
v -1.203181 4.967949 -5.852382
v -1.315251 4.920955 -5.770960
v -1.425323 4.850654 -5.690989
v -1.525420 4.760403 -5.618265
v -1.609547 4.657519 -5.557144
v -1.675300 4.550685 -5.509372
v -1.096471 4.992865 -6.070089
v -1.203181 4.967949 -6.147618
v -1.315251 4.920955 -6.229040
v -1.425323 4.850654 -6.309011
v -1.525420 4.760403 -6.381735
v -1.609547 4.657519 -6.442856
v -1.675300 4.550685 -6.490628
v -0.963152 4.992865 -6.113408
v -0.922393 4.967950 -6.238853
v -0.879587 4.920955 -6.370598
v -0.837544 4.850655 -6.499995
v -0.799312 4.760403 -6.617666
v -0.767178 4.657519 -6.716563
v -0.742063 4.550685 -6.793860
v -0.833802 4.978672 -6.120749
v -0.692833 4.943208 -6.126518
v -0.784755 4.943209 -6.253036
v -0.548625 4.882854 -6.129731
v -0.638200 4.894429 -6.262863
v -0.737138 4.882855 -6.389192
v -0.412217 4.798549 -6.129731
v -0.493271 4.819912 -6.266403
v -0.590049 4.819913 -6.399604
v -0.694986 4.798552 -6.518924
v -0.293742 4.696558 -6.126519
v -0.361806 4.723610 -6.262864
v -0.449992 4.733353 -6.399605
v -0.552791 4.723612 -6.525728
v -0.661431 4.696561 -6.632593
v -0.198978 4.586331 -6.120750
v -0.252634 4.614342 -6.253038
v -0.327913 4.629942 -6.389194
v -0.422170 4.629943 -6.518926
v -0.528401 4.614344 -6.632595
v -0.637634 4.586334 -6.724502
v -1.063483 4.978672 -6.195376
v -1.025408 4.943209 -6.331227
v -1.174138 4.943209 -6.282901
v -0.983902 4.882855 -6.469369
v -1.138197 4.894430 -6.425320
v -1.288916 4.882855 -6.370262
v -0.941750 4.798552 -6.599101
v -1.096779 4.819913 -6.564248
v -1.253366 4.819913 -6.513369
v -1.399272 4.798552 -6.450440
v -0.902085 4.696561 -6.710785
v -1.052790 4.723612 -6.688185
v -1.210088 4.733355 -6.646571
v -1.361804 4.723612 -6.587779
v -1.497009 4.696561 -6.517479
v -0.867316 4.586334 -6.799129
v -1.009709 4.614345 -6.788978
v -1.162463 4.629944 -6.759458
v -1.314971 4.629944 -6.709904
v -1.455902 4.614345 -6.643998
v -1.577066 4.586334 -6.568513
v -1.205432 4.978672 -6.000000
v -1.322868 4.943208 -6.078192
v -1.322868 4.943208 -5.921808
v -1.441423 4.882854 -6.160354
v -1.447210 4.894429 -6.000000
v -1.441423 4.882854 -5.839646
v -1.551779 4.798551 -6.240532
v -1.566539 4.819912 -6.082322
v -1.566539 4.819912 -5.917678
v -1.551779 4.798551 -5.759468
v -1.645740 4.696560 -6.312768
v -1.670817 4.723611 -6.162457
v -1.679848 4.733353 -6.000000
v -1.670817 4.723611 -5.837543
v -1.645740 4.696560 -5.687232
v -1.719015 4.586334 -6.373135
v -1.753363 4.614343 -6.234576
v -1.772492 4.629942 -6.080177
v -1.772492 4.629942 -5.919823
v -1.753363 4.614343 -5.765424
v -1.719015 4.586334 -5.626865
v -1.063483 4.978672 -5.804624
v -1.174138 4.943209 -5.717099
v -1.025408 4.943209 -5.668773
v -1.288916 4.882855 -5.629738
v -1.138197 4.894430 -5.574680
v -0.983902 4.882855 -5.530631
v -1.399272 4.798552 -5.549560
v -1.253366 4.819913 -5.486631
v -1.096779 4.819913 -5.435752
v -0.941750 4.798552 -5.400899
v -1.497009 4.696561 -5.482521
v -1.361804 4.723612 -5.412221
v -1.210088 4.733355 -5.353429
v -1.052790 4.723612 -5.311815
v -0.902085 4.696561 -5.289215
v -1.577066 4.586334 -5.431487
v -1.455902 4.614345 -5.356002
v -1.314971 4.629944 -5.290096
v -1.162463 4.629944 -5.240542
v -1.009708 4.614345 -5.211022
v -0.867316 4.586335 -5.200871
v -0.833802 4.978672 -5.879251
v -0.784755 4.943209 -5.746964
v -0.692833 4.943208 -5.873482
v -0.737138 4.882855 -5.610808
v -0.638200 4.894429 -5.737137
v -0.548625 4.882854 -5.870269
v -0.694986 4.798552 -5.481076
v -0.590049 4.819913 -5.600396
v -0.493271 4.819912 -5.733597
v -0.412217 4.798549 -5.870269
v -0.661431 4.696561 -5.367407
v -0.552791 4.723612 -5.474272
v -0.449992 4.733353 -5.600395
v -0.361806 4.723610 -5.737136
v -0.293742 4.696558 -5.873481
v -0.637634 4.586334 -5.275498
v -0.528401 4.614344 -5.367405
v -0.422170 4.629943 -5.481074
v -0.327913 4.629942 -5.610806
v -0.252634 4.614342 -5.746962
v -0.198978 4.586331 -5.879250
v -0.096260 4.380897 -6.195376
v -0.078492 4.266063 -6.282902
v -0.145008 4.399094 -6.331229
v -0.081144 4.136410 -6.370264
v -0.138196 4.276396 -6.425322
v -0.217554 4.409229 -6.469371
v -0.107195 4.000000 -6.450443
v -0.153340 4.140059 -6.513372
v -0.223370 4.280118 -6.564251
v -0.311810 4.409230 -6.599103
v -0.154710 3.866968 -6.517481
v -0.190981 4.000000 -6.587782
v -0.250118 4.140059 -6.646575
v -0.329179 4.276397 -6.688189
v -0.420774 4.399096 -6.710788
v -0.217499 3.746067 -6.568515
v -0.246632 3.866968 -6.644002
v -0.295707 4.000000 -6.709909
v -0.363912 4.136411 -6.759463
v -0.446180 4.266065 -6.788982
v -0.534915 4.380900 -6.799131
v -0.906549 4.380900 -6.919882
v -0.984300 4.266064 -6.963828
v -1.050816 4.399096 -6.915500
v -1.068205 4.136410 -6.988302
v -1.138198 4.276397 -6.951055
v -1.204615 4.409230 -6.889193
v -1.152509 4.000000 -6.988302
v -1.226618 4.140059 -6.963861
v -1.296648 4.280118 -6.912981
v -1.357124 4.409230 -6.839639
v -1.230948 3.866967 -6.963829
v -1.309016 4.000000 -6.951056
v -1.383207 4.140059 -6.912982
v -1.447215 4.276397 -6.850649
v -1.497012 4.399096 -6.770520
v -1.298885 3.746066 -6.919883
v -1.379680 3.866967 -6.915503
v -1.457527 4.000000 -6.889196
v -1.525732 4.136410 -6.839642
v -1.579229 4.266065 -6.770522
v -1.616302 4.380900 -6.689266
v -1.845982 4.380899 -6.373136
v -1.911804 4.266063 -6.312769
v -1.886396 4.399095 -6.234577
v -1.961008 4.136409 -6.240533
v -1.947213 4.276396 -6.162457
v -1.908902 4.409228 -6.080178
v -1.987059 4.000000 -6.160355
v -1.986715 4.140059 -6.082322
v -1.959966 4.280118 -6.000000
v -1.908902 4.409229 -5.919822
v -1.988023 3.866969 -6.078192
v -2.000000 4.000000 -6.000000
v -1.986715 4.140059 -5.917677
v -1.947213 4.276397 -5.837542
v -1.886395 4.399096 -5.765423
v -1.967222 3.746069 -6.000000
v -1.988023 3.866970 -5.921807
v -1.987059 4.000001 -5.839644
v -1.961008 4.136411 -5.759466
v -1.911803 4.266065 -5.687231
v -1.845982 4.380899 -5.626864
v -1.616302 4.380900 -5.310734
v -1.579229 4.266065 -5.229479
v -1.497012 4.399096 -5.229480
v -1.525733 4.136410 -5.160358
v -1.447216 4.276397 -5.149352
v -1.357124 4.409230 -5.160361
v -1.457527 3.999999 -5.110805
v -1.383208 4.140059 -5.087018
v -1.296649 4.280118 -5.087019
v -1.204616 4.409230 -5.110807
v -1.379681 3.866967 -5.084497
v -1.309017 3.999999 -5.048944
v -1.226619 4.140059 -5.036139
v -1.138199 4.276397 -5.048945
v -1.050817 4.399096 -5.084500
v -1.298885 3.746066 -5.080117
v -1.230948 3.866967 -5.036172
v -1.152509 4.000000 -5.011698
v -1.068205 4.136410 -5.011698
v -0.984301 4.266064 -5.036172
v -0.906549 4.380900 -5.080118
v -0.534915 4.380900 -5.200869
v -0.446180 4.266064 -5.211017
v -0.420774 4.399096 -5.289212
v -0.363912 4.136410 -5.240537
v -0.329180 4.276396 -5.311810
v -0.311810 4.409229 -5.400896
v -0.295707 3.999999 -5.290091
v -0.250118 4.140058 -5.353424
v -0.223370 4.280117 -5.435748
v -0.217554 4.409228 -5.530628
v -0.246632 3.866966 -5.355998
v -0.190981 3.999998 -5.412217
v -0.153341 4.140057 -5.486627
v -0.138196 4.276394 -5.574677
v -0.145008 4.399093 -5.668770
v -0.217499 3.746066 -5.431485
v -0.154711 3.866966 -5.482518
v -0.107195 3.999998 -5.549556
v -0.081144 4.136407 -5.629735
v -0.078492 4.266061 -5.717096
v -0.096260 4.380897 -5.804623
v -0.701114 4.253934 -6.919883
v -0.620319 4.133033 -6.915503
v -0.769052 4.133032 -6.963829
v -0.542473 4.000000 -6.889195
v -0.690983 4.000000 -6.951056
v -0.847491 4.000000 -6.988302
v -0.474268 3.863589 -6.839642
v -0.616793 3.859940 -6.912982
v -0.773381 3.859941 -6.963861
v -0.931795 3.863590 -6.988302
v -0.420771 3.733935 -6.770521
v -0.552784 3.723602 -6.850648
v -0.703352 3.719881 -6.912981
v -0.861801 3.723602 -6.951055
v -1.015700 3.733935 -6.963827
v -0.383698 3.619100 -6.689265
v -0.502988 3.600903 -6.770520
v -0.642876 3.590770 -6.839639
v -0.795385 3.590770 -6.889193
v -0.949183 3.600904 -6.915500
v -1.093451 3.619100 -6.919881
v -1.782501 4.253933 -6.568515
v -1.753368 4.133032 -6.644002
v -1.845290 4.133032 -6.517482
v -1.704293 4.000000 -6.709909
v -1.809018 4.000000 -6.587783
v -1.892805 4.000000 -6.450444
v -1.636087 3.863590 -6.759464
v -1.749881 3.859941 -6.646577
v -1.846659 3.859941 -6.513374
v -1.918856 3.863590 -6.370265
v -1.553819 3.733935 -6.788983
v -1.670819 3.723603 -6.688190
v -1.776628 3.719882 -6.564253
v -1.861803 3.723604 -6.425324
v -1.921507 3.733937 -6.282904
v -1.465084 3.619100 -6.799132
v -1.579224 3.600904 -6.710789
v -1.688189 3.590770 -6.599106
v -1.782445 3.590771 -6.469374
v -1.854991 3.600905 -6.331231
v -1.903739 3.619102 -6.195378
v -1.782501 4.253933 -5.431485
v -1.845290 4.133032 -5.482518
v -1.753368 4.133032 -5.355998
v -1.892805 4.000000 -5.549557
v -1.809018 4.000000 -5.412217
v -1.704293 4.000000 -5.290091
v -1.918856 3.863590 -5.629735
v -1.846659 3.859941 -5.486626
v -1.749881 3.859941 -5.353423
v -1.636087 3.863590 -5.240536
v -1.921508 3.733937 -5.717096
v -1.861803 3.723604 -5.574676
v -1.776629 3.719882 -5.435747
v -1.670819 3.723603 -5.311810
v -1.553819 3.733935 -5.211017
v -1.903739 3.619102 -5.804622
v -1.854991 3.600905 -5.668769
v -1.782445 3.590771 -5.530626
v -1.688189 3.590770 -5.400894
v -1.579224 3.600904 -5.289211
v -1.465084 3.619100 -5.200868
v -0.701114 4.253934 -5.080117
v -0.769052 4.133032 -5.036171
v -0.620319 4.133033 -5.084497
v -0.847491 4.000000 -5.011698
v -0.690983 4.000000 -5.048944
v -0.542473 4.000000 -5.110805
v -0.931795 3.863590 -5.011698
v -0.773381 3.859941 -5.036139
v -0.616793 3.859940 -5.087018
v -0.474268 3.863589 -5.160358
v -1.015700 3.733935 -5.036173
v -0.861801 3.723603 -5.048945
v -0.703352 3.719881 -5.087019
v -0.552784 3.723602 -5.149352
v -0.420771 3.733935 -5.229479
v -1.093451 3.619100 -5.080118
v -0.949183 3.600904 -5.084500
v -0.795385 3.590770 -5.110808
v -0.642876 3.590770 -5.160361
v -0.502988 3.600903 -5.229480
v -0.383698 3.619100 -5.310734
v -0.032778 4.253932 -6.000000
v -0.011977 4.133031 -5.921808
v -0.011977 4.133031 -6.078192
v -0.012941 4.000000 -5.839645
v 0.000000 4.000000 -6.000000
v -0.012941 4.000000 -6.160355
v -0.038992 3.863590 -5.759467
v -0.013285 3.859941 -5.917677
v -0.013285 3.859941 -6.082322
v -0.038992 3.863590 -6.240533
v -0.088196 3.733937 -5.687231
v -0.052787 3.723604 -5.837543
v -0.040034 3.719883 -6.000000
v -0.052787 3.723604 -6.162457
v -0.088196 3.733937 -6.312769
v -0.154018 3.619101 -5.626864
v -0.113604 3.600905 -5.765424
v -0.091098 3.590771 -5.919822
v -0.091098 3.590771 -6.080178
v -0.113604 3.600905 -6.234576
v -0.154018 3.619101 -6.373136
v -0.422934 3.413666 -6.568513
v -0.502991 3.303439 -6.517479
v -0.544098 3.385656 -6.643999
v -0.600728 3.201448 -6.450441
v -0.638196 3.276388 -6.587779
v -0.685029 3.370057 -6.709905
v -0.711084 3.117145 -6.370263
v -0.746634 3.180087 -6.513370
v -0.789913 3.266646 -6.646572
v -0.837537 3.370057 -6.759459
v -0.825862 3.056791 -6.282902
v -0.861803 3.105571 -6.425321
v -0.903221 3.180088 -6.564250
v -0.947211 3.276389 -6.688186
v -0.990292 3.385656 -6.788979
v -0.936518 3.021328 -6.195377
v -0.974593 3.056792 -6.331229
v -1.016099 3.117146 -6.469371
v -1.058250 3.201450 -6.599103
v -1.097915 3.303440 -6.710786
v -1.132684 3.413666 -6.799129
v -1.362367 3.413666 -6.724502
v -1.338569 3.303439 -6.632593
v -1.471601 3.385656 -6.632593
v -1.305014 3.201448 -6.518923
v -1.447211 3.276388 -6.525727
v -1.577832 3.370057 -6.518924
v -1.262862 3.117145 -6.389192
v -1.409952 3.180087 -6.399603
v -1.550009 3.266647 -6.399603
v -1.672088 3.370058 -6.389193
v -1.215245 3.056791 -6.253036
v -1.361801 3.105571 -6.262863
v -1.506730 3.180089 -6.266402
v -1.638195 3.276391 -6.262863
v -1.747367 3.385659 -6.253036
v -1.166198 3.021328 -6.120749
v -1.307168 3.056792 -6.126518
v -1.451375 3.117146 -6.129730
v -1.587784 3.201451 -6.129730
v -1.706258 3.303442 -6.126518
v -1.801022 3.413670 -6.120749
v -1.801022 3.413670 -5.879251
v -1.706258 3.303442 -5.873482
v -1.747367 3.385659 -5.746964
v -1.587784 3.201451 -5.870269
v -1.638195 3.276391 -5.737136
v -1.672088 3.370059 -5.610807
v -1.451375 3.117147 -5.870269
v -1.506730 3.180089 -5.733597
v -1.550009 3.266648 -5.600395
v -1.577832 3.370058 -5.481075
v -1.307168 3.056792 -5.873481
v -1.361801 3.105572 -5.737136
v -1.409952 3.180088 -5.600395
v -1.447211 3.276390 -5.474271
v -1.471601 3.385657 -5.367406
v -1.166198 3.021329 -5.879250
v -1.215246 3.056792 -5.746963
v -1.262863 3.117146 -5.610806
v -1.305015 3.201450 -5.481074
v -1.338570 3.303440 -5.367406
v -1.362367 3.413666 -5.275497
v -0.280985 3.413666 -6.373135
v -0.246637 3.385657 -6.234576
v -0.354260 3.303440 -6.312768
v -0.227507 3.370058 -6.080177
v -0.329183 3.276389 -6.162457
v -0.448220 3.201449 -6.240532
v -0.227507 3.370058 -5.919822
v -0.320151 3.266647 -6.000000
v -0.433460 3.180088 -6.082322
v -0.558577 3.117146 -6.160354
v -0.246636 3.385657 -5.765424
v -0.329182 3.276390 -5.837542
v -0.433459 3.180089 -5.917677
v -0.552789 3.105572 -5.999999
v -0.677131 3.056792 -6.078191
v -0.280984 3.413667 -5.626864
v -0.354259 3.303441 -5.687231
v -0.448219 3.201450 -5.759467
v -0.558576 3.117146 -5.839644
v -0.677130 3.056792 -5.921807
v -0.794568 3.021329 -6.000000
v -1.132684 3.413666 -5.200871
v -1.097915 3.303439 -5.289215
v -0.990291 3.385656 -5.211022
v -1.058249 3.201448 -5.400899
v -0.947210 3.276388 -5.311815
v -0.837537 3.370056 -5.240542
v -1.016097 3.117145 -5.530631
v -0.903220 3.180087 -5.435751
v -0.789911 3.266646 -5.353428
v -0.685029 3.370057 -5.290095
v -0.974591 3.056792 -5.668772
v -0.861801 3.105571 -5.574679
v -0.746632 3.180088 -5.486630
v -0.638195 3.276389 -5.412221
v -0.544097 3.385656 -5.356001
v -0.936516 3.021328 -5.804624
v -0.825860 3.056792 -5.717098
v -0.711082 3.117146 -5.629736
v -0.600726 3.201450 -5.549559
v -0.502989 3.303440 -5.482520
v -0.422933 3.413667 -5.431487
vn 0.0000 -1.0000 0.0000
vn 0.0987 -0.9925 0.0717
vn -0.0377 -0.9925 0.1160
vn 0.7236 -0.4472 0.5257
vn 0.6740 -0.5530 0.4897
vn 0.7728 -0.4776 0.4180
vn -0.1220 -0.9925 0.0000
vn -0.0377 -0.9925 -0.1160
vn 0.0987 -0.9925 -0.0717
vn 0.7961 -0.3556 0.4897
vn -0.2764 -0.4472 0.8506
vn -0.1587 -0.4776 0.8641
vn -0.2197 -0.3556 0.9084
vn -0.8944 -0.4472 0.0000
vn -0.8709 -0.4776 0.1160
vn -0.9319 -0.3556 0.0717
vn -0.2764 -0.4472 -0.8506
vn -0.3795 -0.4776 -0.7924
vn -0.3562 -0.3556 -0.8641
vn 0.7236 -0.4472 -0.5257
vn 0.6363 -0.4776 -0.6058
vn 0.7118 -0.3556 -0.6058
vn 0.7118 -0.3556 0.6058
vn -0.3562 -0.3556 0.8641
vn -0.9319 -0.3556 -0.0717
vn -0.2197 -0.3556 -0.9084
vn 0.7961 -0.3556 -0.4897
vn 0.2764 0.4472 0.8506
vn 0.3795 0.4776 0.7924
vn 0.2575 0.5530 0.7924
vn -0.7236 0.4472 0.5257
vn -0.6363 0.4776 0.6058
vn -0.6740 0.5530 0.4897
vn -0.7236 0.4472 -0.5257
vn -0.7728 0.4776 -0.4180
vn -0.6740 0.5530 -0.4897
vn 0.2764 0.4472 -0.8506
vn 0.1587 0.4776 -0.8641
vn 0.2575 0.5530 -0.7924
vn 0.8944 0.4472 0.0000
vn 0.8709 0.4776 -0.1160
vn 0.8332 0.5530 0.0000
vn 0.1220 0.9925 0.0000
vn 0.0377 0.9925 -0.1160
vn 0.0000 1.0000 0.0000
vn 0.2532 0.9674 0.0000
vn 0.1697 0.9777 -0.1233
vn 0.3907 0.9205 0.0000
vn 0.3095 0.9420 -0.1293
vn 0.5257 0.8506 0.0000
vn 0.4520 0.8821 -0.1326
vn 0.6485 0.7611 0.0000
vn 0.5868 0.7988 -0.1326
vn 0.7520 0.6591 0.0000
vn 0.7042 0.6981 -0.1293
vn 0.7986 0.5891 -0.1233
vn 0.0782 0.9674 -0.2408
vn 0.2186 0.9420 -0.2544
vn 0.1207 0.9205 -0.3716
vn 0.3635 0.8933 -0.2641
vn 0.2658 0.8821 -0.3889
vn 0.1625 0.8506 -0.5000
vn 0.5065 0.8196 -0.2676
vn 0.4110 0.8196 -0.3991
vn 0.3074 0.7988 -0.5171
vn 0.2004 0.7611 -0.6168
vn 0.6364 0.7247 -0.2641
vn 0.5492 0.7342 -0.3991
vn 0.4479 0.7247 -0.5237
vn 0.3405 0.6981 -0.6297
vn 0.2324 0.6591 -0.7152
vn 0.7448 0.6168 -0.2544
vn 0.6701 0.6322 -0.3889
vn 0.5770 0.6322 -0.5171
vn 0.4721 0.6168 -0.6297
vn 0.3641 0.5891 -0.7214
vn 0.8303 0.5026 -0.2408
vn 0.7693 0.5196 -0.3716
vn 0.6882 0.5257 -0.5000
vn 0.5911 0.5196 -0.6168
vn 0.4856 0.5026 -0.7152
vn 0.3795 0.4776 -0.7924
vn -0.0987 0.9925 -0.0717
vn -0.0648 0.9777 -0.1996
vn -0.0273 0.9420 -0.3343
vn 0.0136 0.8821 -0.4709
vn 0.0552 0.7988 -0.5990
vn 0.0946 0.6981 -0.7096
vn 0.1295 0.5891 -0.7976
vn -0.2048 0.9674 -0.1488
vn -0.1744 0.9420 -0.2865
vn -0.3161 0.9205 -0.2297
vn -0.1388 0.8933 -0.4274
vn -0.2878 0.8821 -0.3729
vn -0.4253 0.8506 -0.3090
vn -0.0980 0.8196 -0.5644
vn -0.2525 0.8196 -0.5142
vn -0.3968 0.7988 -0.4522
vn -0.5247 0.7611 -0.3812
vn -0.0545 0.7247 -0.6869
vn -0.2098 0.7342 -0.6457
vn -0.3597 0.7247 -0.5878
vn -0.4937 0.6981 -0.5185
vn -0.6084 0.6591 -0.4420
vn -0.0118 0.6168 -0.7870
vn -0.1628 0.6322 -0.7575
vn -0.3135 0.6322 -0.7085
vn -0.4530 0.6168 -0.6436
vn -0.5736 0.5891 -0.5692
vn 0.0275 0.5026 -0.8640
vn -0.1157 0.5196 -0.8465
vn -0.2629 0.5257 -0.8090
vn -0.4039 0.5196 -0.7528
vn -0.5302 0.5026 -0.6828
vn -0.6363 0.4776 -0.6058
vn -0.0987 0.9925 0.0717
vn -0.2098 0.9777 0.0000
vn -0.3264 0.9420 -0.0773
vn -0.4436 0.8821 -0.1584
vn -0.5527 0.7988 -0.2376
vn -0.6457 0.6981 -0.3093
vn -0.7186 0.5891 -0.3696
vn -0.2048 0.9674 0.1488
vn -0.3264 0.9420 0.0773
vn -0.3161 0.9205 0.2297
vn -0.4493 0.8933 0.0000
vn -0.4436 0.8821 0.1584
vn -0.4253 0.8506 0.3090
vn -0.5671 0.8196 -0.0812
vn -0.5671 0.8196 0.0812
vn -0.5527 0.7988 0.2376
vn -0.5247 0.7611 0.3812
vn -0.6701 0.7247 -0.1604
vn -0.6789 0.7342 0.0000
vn -0.6701 0.7247 0.1604
vn -0.6457 0.6981 0.3093
vn -0.6084 0.6591 0.4420
vn -0.7521 0.6168 -0.2320
vn -0.7707 0.6322 -0.0792
vn -0.7707 0.6322 0.0792
vn -0.7521 0.6168 0.2320
vn -0.7186 0.5891 0.3696
vn -0.8133 0.5026 -0.2932
vn -0.8408 0.5196 -0.1515
vn -0.8506 0.5257 0.0000
vn -0.8408 0.5196 0.1515
vn -0.8133 0.5026 0.2932
vn -0.7728 0.4776 0.4180
vn 0.0377 0.9925 0.1160
vn -0.0648 0.9777 0.1996
vn -0.1744 0.9420 0.2865
vn -0.2878 0.8821 0.3729
vn -0.3968 0.7988 0.4522
vn -0.4937 0.6981 0.5185
vn -0.5736 0.5891 0.5692
vn 0.0782 0.9674 0.2408
vn -0.0273 0.9420 0.3343
vn 0.1207 0.9205 0.3716
vn -0.1388 0.8933 0.4274
vn 0.0136 0.8821 0.4709
vn 0.1625 0.8506 0.5000
vn -0.2525 0.8196 0.5142
vn -0.0980 0.8196 0.5644
vn 0.0552 0.7988 0.5990
vn 0.2004 0.7611 0.6168
vn -0.3597 0.7247 0.5878
vn -0.2098 0.7342 0.6457
vn -0.0545 0.7247 0.6869
vn 0.0946 0.6981 0.7096
vn 0.2324 0.6591 0.7152
vn -0.4530 0.6168 0.6436
vn -0.3135 0.6322 0.7085
vn -0.1628 0.6322 0.7575
vn -0.0118 0.6168 0.7870
vn 0.1295 0.5891 0.7976
vn -0.5302 0.5026 0.6828
vn -0.4039 0.5196 0.7528
vn -0.2629 0.5257 0.8090
vn -0.1157 0.5196 0.8465
vn 0.0275 0.5026 0.8640
vn 0.1587 0.4776 0.8641
vn 0.1697 0.9777 0.1233
vn 0.2186 0.9420 0.2544
vn 0.2658 0.8821 0.3889
vn 0.3074 0.7988 0.5171
vn 0.3405 0.6981 0.6297
vn 0.3641 0.5891 0.7214
vn 0.3095 0.9420 0.1293
vn 0.3635 0.8933 0.2641
vn 0.4520 0.8821 0.1326
vn 0.4110 0.8196 0.3991
vn 0.5065 0.8196 0.2676
vn 0.5868 0.7988 0.1326
vn 0.4479 0.7247 0.5237
vn 0.5492 0.7342 0.3991
vn 0.6364 0.7247 0.2641
vn 0.7042 0.6981 0.1293
vn 0.4721 0.6168 0.6297
vn 0.5770 0.6322 0.5171
vn 0.6701 0.6322 0.3889
vn 0.7448 0.6168 0.2544
vn 0.7986 0.5891 0.1233
vn 0.4856 0.5026 0.7152
vn 0.5911 0.5196 0.6168
vn 0.6882 0.5257 0.5000
vn 0.7693 0.5196 0.3716
vn 0.8303 0.5026 0.2408
vn 0.8709 0.4776 0.1160
vn 0.9319 0.3556 -0.0717
vn 0.9569 0.2494 -0.1488
vn 0.9035 0.3793 -0.1996
vn 0.9647 0.1289 -0.2297
vn 0.9206 0.2653 -0.2865
vn 0.9510 0.0000 -0.3090
vn 0.9177 0.1371 -0.3729
vn 0.9154 -0.1289 -0.3812
vn 0.8919 0.0023 -0.4522
vn 0.8616 -0.2494 -0.4420
vn 0.8452 -0.1294 -0.5185
vn 0.7834 -0.2495 -0.5692
vn 0.8548 0.3969 -0.3343
vn 0.8611 0.2753 -0.4274
vn 0.7829 0.4066 -0.4709
vn 0.8460 0.1407 -0.5142
vn 0.7769 0.2789 -0.5644
vn 0.6897 0.4066 -0.5990
vn 0.8090 0.0024 -0.5878
vn 0.7505 0.1407 -0.6457
vn 0.6725 0.2753 -0.6869
vn 0.5821 0.3969 -0.7097
vn 0.7543 -0.1294 -0.6436
vn 0.7056 0.0023 -0.7085
vn 0.6383 0.1371 -0.7575
vn 0.5570 0.2653 -0.7870
vn 0.4690 0.3793 -0.7976
vn 0.6866 -0.2494 -0.6829
vn 0.6454 -0.1289 -0.7528
vn 0.5878 0.0000 -0.8090
vn 0.5165 0.1289 -0.8465
vn 0.4372 0.2494 -0.8640
vn 0.3562 0.3556 -0.8641
vn 0.2197 0.3556 -0.9084
vn 0.1541 0.2494 -0.9560
vn 0.0894 0.3793 -0.9210
vn 0.0797 0.1289 -0.9884
vn 0.0120 0.2653 -0.9641
vn 0.0000 0.0000 -1.0000
vn -0.0711 0.1371 -0.9880
vn -0.0797 -0.1289 -0.9884
vn -0.1544 0.0023 -0.9880
vn -0.1541 -0.2494 -0.9560
vn -0.2319 -0.1294 -0.9641
vn -0.2992 -0.2495 -0.9210
vn -0.0538 0.3969 -0.9163
vn -0.1403 0.2753 -0.9510
vn -0.2059 0.4066 -0.8901
vn -0.2276 0.1407 -0.9635
vn -0.2967 0.2789 -0.9133
vn -0.3566 0.4066 -0.8411
vn -0.3090 0.0024 -0.9510
vn -0.3822 0.1407 -0.9133
vn -0.4455 0.2753 -0.8519
vn -0.4950 0.3969 -0.7729
vn -0.3790 -0.1294 -0.9163
vn -0.4558 0.0023 -0.8901
vn -0.5232 0.1371 -0.8411
vn -0.5764 0.2653 -0.7729
vn -0.6136 0.3793 -0.6925
vn -0.4372 -0.2494 -0.8640
vn -0.5165 -0.1289 -0.8465
vn -0.5878 0.0000 -0.8090
vn -0.6454 0.1289 -0.7528
vn -0.6866 0.2494 -0.6829
vn -0.7118 0.3556 -0.6058
vn -0.7961 0.3556 -0.4897
vn -0.8616 0.2494 -0.4420
vn -0.8482 0.3793 -0.3696
vn -0.9154 0.1289 -0.3812
vn -0.9132 0.2653 -0.3093
vn -0.9510 0.0000 -0.3090
vn -0.9616 0.1371 -0.2376
vn -0.9647 -0.1289 -0.2297
vn -0.9874 0.0023 -0.1584
vn -0.9569 -0.2494 -0.1488
vn -0.9886 -0.1294 -0.0773
vn -0.9684 -0.2495 0.0000
vn -0.8881 0.3969 -0.2320
vn -0.9478 0.2753 -0.1604
vn -0.9101 0.4066 -0.0792
vn -0.9867 0.1407 -0.0812
vn -0.9603 0.2789 0.0000
vn -0.9101 0.4066 0.0792
vn -1.0000 0.0024 0.0000
vn -0.9867 0.1407 0.0812
vn -0.9478 0.2753 0.1604
vn -0.8881 0.3969 0.2320
vn -0.9886 -0.1294 0.0773
vn -0.9874 0.0023 0.1584
vn -0.9616 0.1371 0.2376
vn -0.9132 0.2653 0.3093
vn -0.8482 0.3793 0.3696
vn -0.9569 -0.2494 0.1488
vn -0.9647 -0.1289 0.2297
vn -0.9510 0.0000 0.3090
vn -0.9154 0.1289 0.3812
vn -0.8616 0.2494 0.4420
vn -0.7961 0.3556 0.4897
vn -0.7118 0.3556 0.6058
vn -0.6866 0.2494 0.6829
vn -0.6136 0.3793 0.6925
vn -0.6454 0.1289 0.7528
vn -0.5764 0.2653 0.7729
vn -0.5878 0.0000 0.8090
vn -0.5232 0.1371 0.8411
vn -0.5165 -0.1289 0.8465
vn -0.4558 0.0023 0.8901
vn -0.4372 -0.2494 0.8640
vn -0.3790 -0.1294 0.9163
vn -0.2992 -0.2495 0.9210
vn -0.4950 0.3969 0.7729
vn -0.4455 0.2753 0.8519
vn -0.3566 0.4066 0.8411
vn -0.3822 0.1407 0.9133
vn -0.2967 0.2789 0.9133
vn -0.2059 0.4066 0.8901
vn -0.3090 0.0024 0.9510
vn -0.2276 0.1407 0.9635
vn -0.1403 0.2753 0.9510
vn -0.0538 0.3969 0.9163
vn -0.2319 -0.1294 0.9641
vn -0.1544 0.0023 0.9880
vn -0.0711 0.1371 0.9880
vn 0.0120 0.2653 0.9641
vn 0.0894 0.3793 0.9210
vn -0.1541 -0.2494 0.9560
vn -0.0797 -0.1289 0.9884
vn 0.0000 0.0000 1.0000
vn 0.0797 0.1289 0.9884
vn 0.1541 0.2494 0.9560
vn 0.2197 0.3556 0.9084
vn 0.3562 0.3556 0.8641
vn 0.4372 0.2494 0.8640
vn 0.4690 0.3793 0.7976
vn 0.5165 0.1289 0.8465
vn 0.5570 0.2653 0.7870
vn 0.5878 0.0000 0.8090
vn 0.6383 0.1371 0.7575
vn 0.6454 -0.1289 0.7528
vn 0.7056 0.0023 0.7085
vn 0.6866 -0.2494 0.6829
vn 0.7543 -0.1294 0.6436
vn 0.7834 -0.2495 0.5692
vn 0.5821 0.3969 0.7097
vn 0.6725 0.2753 0.6869
vn 0.6897 0.4066 0.5990
vn 0.7505 0.1407 0.6457
vn 0.7769 0.2789 0.5644
vn 0.7829 0.4066 0.4709
vn 0.8090 0.0024 0.5878
vn 0.8460 0.1407 0.5142
vn 0.8611 0.2753 0.4274
vn 0.8548 0.3969 0.3343
vn 0.8452 -0.1294 0.5185
vn 0.8919 0.0023 0.4522
vn 0.9177 0.1371 0.3729
vn 0.9206 0.2653 0.2865
vn 0.9035 0.3793 0.1996
vn 0.8616 -0.2494 0.4420
vn 0.9154 -0.1289 0.3812
vn 0.9510 0.0000 0.3090
vn 0.9647 0.1289 0.2297
vn 0.9569 0.2494 0.1488
vn 0.9319 0.3556 0.0717
vn 0.2992 0.2495 -0.9210
vn 0.3790 0.1294 -0.9163
vn 0.4558 -0.0023 -0.8901
vn 0.5232 -0.1371 -0.8411
vn 0.5764 -0.2653 -0.7729
vn 0.6136 -0.3793 -0.6925
vn 0.2319 0.1294 -0.9641
vn 0.3090 -0.0024 -0.9510
vn 0.1544 -0.0023 -0.9880
vn 0.3822 -0.1407 -0.9133
vn 0.2276 -0.1407 -0.9635
vn 0.0711 -0.1371 -0.9880
vn 0.4455 -0.2753 -0.8519
vn 0.2967 -0.2789 -0.9133
vn 0.1403 -0.2753 -0.9510
vn -0.0120 -0.2653 -0.9641
vn 0.4950 -0.3969 -0.7729
vn 0.3566 -0.4066 -0.8411
vn 0.2059 -0.4066 -0.8901
vn 0.0538 -0.3969 -0.9163
vn -0.0894 -0.3793 -0.9210
vn 0.5302 -0.5026 -0.6828
vn 0.4039 -0.5196 -0.7528
vn 0.2629 -0.5257 -0.8090
vn 0.1157 -0.5196 -0.8465
vn -0.0275 -0.5026 -0.8640
vn -0.1587 -0.4776 -0.8641
vn -0.7834 0.2495 -0.5692
vn -0.7543 0.1294 -0.6436
vn -0.7056 -0.0023 -0.7085
vn -0.6383 -0.1371 -0.7575
vn -0.5570 -0.2653 -0.7870
vn -0.4690 -0.3793 -0.7976
vn -0.8452 0.1294 -0.5185
vn -0.8090 -0.0024 -0.5878
vn -0.8919 -0.0023 -0.4522
vn -0.7505 -0.1407 -0.6457
vn -0.8460 -0.1407 -0.5142
vn -0.9177 -0.1371 -0.3729
vn -0.6725 -0.2753 -0.6869
vn -0.7769 -0.2789 -0.5644
vn -0.8611 -0.2753 -0.4274
vn -0.9206 -0.2653 -0.2865
vn -0.5821 -0.3969 -0.7097
vn -0.6897 -0.4066 -0.5990
vn -0.7829 -0.4066 -0.4709
vn -0.8548 -0.3969 -0.3343
vn -0.9035 -0.3793 -0.1996
vn -0.4856 -0.5026 -0.7152
vn -0.5911 -0.5196 -0.6168
vn -0.6882 -0.5257 -0.5000
vn -0.7693 -0.5196 -0.3716
vn -0.8303 -0.5026 -0.2408
vn -0.8709 -0.4776 -0.1160
vn -0.7834 0.2495 0.5692
vn -0.8452 0.1294 0.5185
vn -0.8919 -0.0023 0.4522
vn -0.9177 -0.1371 0.3729
vn -0.9206 -0.2653 0.2865
vn -0.9035 -0.3793 0.1996
vn -0.7543 0.1294 0.6436
vn -0.8090 -0.0024 0.5878
vn -0.7056 -0.0023 0.7085
vn -0.8460 -0.1407 0.5142
vn -0.7505 -0.1407 0.6457
vn -0.6383 -0.1371 0.7575
vn -0.8611 -0.2753 0.4274
vn -0.7769 -0.2789 0.5644
vn -0.6725 -0.2753 0.6869
vn -0.5570 -0.2653 0.7870
vn -0.8548 -0.3969 0.3343
vn -0.7829 -0.4066 0.4709
vn -0.6897 -0.4066 0.5990
vn -0.5821 -0.3969 0.7097
vn -0.4690 -0.3793 0.7976
vn -0.8303 -0.5026 0.2408
vn -0.7693 -0.5196 0.3716
vn -0.6882 -0.5257 0.5000
vn -0.5911 -0.5196 0.6168
vn -0.4856 -0.5026 0.7152
vn -0.3795 -0.4776 0.7924
vn 0.2992 0.2495 0.9210
vn 0.2319 0.1294 0.9641
vn 0.1544 -0.0023 0.9880
vn 0.0711 -0.1371 0.9880
vn -0.0120 -0.2653 0.9641
vn -0.0894 -0.3793 0.9210
vn 0.3790 0.1294 0.9163
vn 0.3090 -0.0024 0.9510
vn 0.4558 -0.0023 0.8901
vn 0.2276 -0.1407 0.9635
vn 0.3822 -0.1407 0.9133
vn 0.5232 -0.1371 0.8411
vn 0.1403 -0.2753 0.9510
vn 0.2967 -0.2789 0.9133
vn 0.4455 -0.2753 0.8519
vn 0.5764 -0.2653 0.7729
vn 0.0538 -0.3969 0.9163
vn 0.2059 -0.4066 0.8901
vn 0.3566 -0.4066 0.8411
vn 0.4950 -0.3969 0.7729
vn 0.6136 -0.3793 0.6925
vn -0.0275 -0.5026 0.8640
vn 0.1157 -0.5196 0.8465
vn 0.2629 -0.5257 0.8090
vn 0.4039 -0.5196 0.7528
vn 0.5302 -0.5026 0.6828
vn 0.6363 -0.4776 0.6058
vn 0.9684 0.2495 0.0000
vn 0.9886 0.1294 0.0773
vn 0.9874 -0.0023 0.1584
vn 0.9616 -0.1371 0.2376
vn 0.9132 -0.2653 0.3093
vn 0.8482 -0.3793 0.3696
vn 0.9886 0.1294 -0.0773
vn 1.0000 -0.0024 0.0000
vn 0.9874 -0.0023 -0.1584
vn 0.9867 -0.1407 0.0812
vn 0.9867 -0.1407 -0.0812
vn 0.9616 -0.1371 -0.2376
vn 0.9478 -0.2753 0.1604
vn 0.9603 -0.2789 0.0000
vn 0.9478 -0.2753 -0.1604
vn 0.9132 -0.2653 -0.3093
vn 0.8881 -0.3969 0.2320
vn 0.9101 -0.4066 0.0792
vn 0.9101 -0.4066 -0.0792
vn 0.8881 -0.3969 -0.2320
vn 0.8482 -0.3793 -0.3696
vn 0.8133 -0.5026 0.2932
vn 0.8408 -0.5196 0.1515
vn 0.8506 -0.5257 0.0000
vn 0.8408 -0.5196 -0.1515
vn 0.8133 -0.5026 -0.2932
vn 0.7728 -0.4776 -0.4180
vn 0.6740 -0.5530 -0.4897
vn 0.6084 -0.6591 -0.4420
vn 0.5736 -0.5891 -0.5692
vn 0.5247 -0.7611 -0.3812
vn 0.4937 -0.6981 -0.5185
vn 0.4253 -0.8506 -0.3090
vn 0.3968 -0.7988 -0.4522
vn 0.3161 -0.9205 -0.2297
vn 0.2878 -0.8821 -0.3729
vn 0.2048 -0.9674 -0.1488
vn 0.1744 -0.9420 -0.2865
vn 0.0648 -0.9777 -0.1996
vn 0.4530 -0.6168 -0.6436
vn 0.3597 -0.7247 -0.5878
vn 0.3135 -0.6322 -0.7085
vn 0.2525 -0.8196 -0.5142
vn 0.2098 -0.7342 -0.6457
vn 0.1628 -0.6322 -0.7575
vn 0.1388 -0.8933 -0.4274
vn 0.0980 -0.8196 -0.5644
vn 0.0545 -0.7247 -0.6869
vn 0.0118 -0.6168 -0.7870
vn 0.0273 -0.9420 -0.3343
vn -0.0136 -0.8821 -0.4709
vn -0.0552 -0.7988 -0.5990
vn -0.0946 -0.6981 -0.7096
vn -0.1295 -0.5891 -0.7976
vn -0.0782 -0.9674 -0.2408
vn -0.1207 -0.9205 -0.3716
vn -0.1625 -0.8506 -0.5000
vn -0.2004 -0.7611 -0.6168
vn -0.2324 -0.6591 -0.7152
vn -0.2575 -0.5530 -0.7924
vn -0.3641 -0.5891 -0.7214
vn -0.3406 -0.6981 -0.6297
vn -0.3074 -0.7988 -0.5171
vn -0.2658 -0.8821 -0.3889
vn -0.2186 -0.9420 -0.2544
vn -0.1697 -0.9777 -0.1233
vn -0.4721 -0.6168 -0.6297
vn -0.4479 -0.7247 -0.5237
vn -0.5770 -0.6322 -0.5171
vn -0.4110 -0.8196 -0.3991
vn -0.5492 -0.7342 -0.3991
vn -0.6701 -0.6322 -0.3889
vn -0.3635 -0.8933 -0.2641
vn -0.5065 -0.8196 -0.2676
vn -0.6364 -0.7247 -0.2641
vn -0.7448 -0.6168 -0.2544
vn -0.3095 -0.9420 -0.1292
vn -0.4520 -0.8821 -0.1326
vn -0.5868 -0.7988 -0.1326
vn -0.7042 -0.6981 -0.1292
vn -0.7986 -0.5891 -0.1233
vn -0.2532 -0.9674 0.0000
vn -0.3907 -0.9205 0.0000
vn -0.5257 -0.8506 0.0000
vn -0.6485 -0.7611 0.0000
vn -0.7520 -0.6591 0.0000
vn -0.8332 -0.5530 0.0000
vn -0.7986 -0.5891 0.1233
vn -0.7042 -0.6981 0.1293
vn -0.5868 -0.7988 0.1326
vn -0.4520 -0.8821 0.1326
vn -0.3095 -0.9420 0.1293
vn -0.1697 -0.9777 0.1233
vn -0.7448 -0.6168 0.2544
vn -0.6364 -0.7247 0.2641
vn -0.6701 -0.6322 0.3889
vn -0.5065 -0.8196 0.2676
vn -0.5492 -0.7342 0.3991
vn -0.5770 -0.6322 0.5171
vn -0.3635 -0.8933 0.2641
vn -0.4110 -0.8196 0.3991
vn -0.4479 -0.7247 0.5237
vn -0.4721 -0.6168 0.6297
vn -0.2186 -0.9420 0.2544
vn -0.2658 -0.8821 0.3889
vn -0.3074 -0.7988 0.5171
vn -0.3405 -0.6981 0.6297
vn -0.3641 -0.5891 0.7214
vn -0.0782 -0.9674 0.2408
vn -0.1207 -0.9205 0.3716
vn -0.1625 -0.8506 0.5000
vn -0.2004 -0.7611 0.6168
vn -0.2324 -0.6591 0.7152
vn -0.2575 -0.5530 0.7924
vn 0.7186 -0.5891 -0.3696
vn 0.7521 -0.6168 -0.2320
vn 0.7707 -0.6322 -0.0792
vn 0.7707 -0.6322 0.0792
vn 0.7521 -0.6168 0.2320
vn 0.7186 -0.5891 0.3696
vn 0.6457 -0.6981 -0.3093
vn 0.6701 -0.7247 -0.1604
vn 0.5527 -0.7988 -0.2376
vn 0.6789 -0.7342 0.0000
vn 0.5671 -0.8196 -0.0812
vn 0.4436 -0.8821 -0.1584
vn 0.6701 -0.7247 0.1604
vn 0.5671 -0.8196 0.0812
vn 0.4493 -0.8933 0.0000
vn 0.3264 -0.9420 -0.0773
vn 0.6457 -0.6981 0.3093
vn 0.5527 -0.7988 0.2376
vn 0.4436 -0.8821 0.1584
vn 0.3264 -0.9420 0.0773
vn 0.2098 -0.9777 0.0000
vn 0.6084 -0.6591 0.4420
vn 0.5247 -0.7611 0.3812
vn 0.4253 -0.8506 0.3090
vn 0.3161 -0.9205 0.2297
vn 0.2048 -0.9674 0.1488
vn -0.1295 -0.5891 0.7976
vn -0.0946 -0.6981 0.7096
vn -0.0552 -0.7988 0.5990
vn -0.0136 -0.8821 0.4709
vn 0.0273 -0.9420 0.3343
vn 0.0648 -0.9777 0.1996
vn 0.0118 -0.6168 0.7870
vn 0.0545 -0.7247 0.6869
vn 0.1628 -0.6322 0.7575
vn 0.0980 -0.8196 0.5644
vn 0.2098 -0.7342 0.6457
vn 0.3135 -0.6322 0.7085
vn 0.1389 -0.8933 0.4274
vn 0.2525 -0.8196 0.5142
vn 0.3597 -0.7247 0.5878
vn 0.4530 -0.6168 0.6436
vn 0.1744 -0.9420 0.2865
vn 0.2878 -0.8821 0.3729
vn 0.3968 -0.7988 0.4522
vn 0.4937 -0.6981 0.5185
vn 0.5736 -0.5891 0.5692
usemtl Glass
s 1
f 97//89 116//90 115//91
f 98//92 122//93 136//94
f 97//89 115//91 150//95
f 97//89 150//95 164//96
f 97//89 164//96 137//97
f 98//92 136//94 185//98
f 99//99 129//100 199//101
f 100//102 157//103 213//104
f 101//105 171//106 227//107
f 102//108 178//109 241//110
f 98//92 185//98 200//111
f 99//99 199//101 214//112
f 100//102 213//104 228//113
f 101//105 227//107 242//114
f 102//108 241//110 186//115
f 103//116 255//117 290//118
f 104//119 262//120 304//121
f 105//122 269//123 311//124
f 106//125 276//126 318//127
f 107//128 283//129 291//130
f 297//131 312//132 108//133
f 296//134 319//135 297//131
f 295//136 320//137 296//134
f 294//138 322//139 295//136
f 293//140 325//141 294//138
f 292//142 329//143 293//140
f 291//130 334//144 292//142
f 297//131 319//135 312//132
f 319//135 313//145 312//132
f 296//134 320//137 319//135
f 320//137 321//146 319//135
f 319//135 321//146 313//145
f 321//146 314//147 313//145
f 295//136 322//139 320//137
f 322//139 323//148 320//137
f 320//137 323//148 321//146
f 323//148 324//149 321//146
f 321//146 324//149 314//147
f 324//149 315//150 314//147
f 294//138 325//141 322//139
f 325//141 326//151 322//139
f 322//139 326//151 323//148
f 326//151 327//152 323//148
f 323//148 327//152 324//149
f 327//152 328//153 324//149
f 324//149 328//153 315//150
f 328//153 316//154 315//150
f 293//140 329//143 325//141
f 329//143 330//155 325//141
f 325//141 330//155 326//151
f 330//155 331//156 326//151
f 326//151 331//156 327//152
f 331//156 332//157 327//152
f 327//152 332//157 328//153
f 332//157 333//158 328//153
f 328//153 333//158 316//154
f 333//158 317//159 316//154
f 292//142 334//144 329//143
f 334//144 335//160 329//143
f 329//143 335//160 330//155
f 335//160 336//161 330//155
f 330//155 336//161 331//156
f 336//161 337//162 331//156
f 331//156 337//162 332//157
f 337//162 338//163 332//157
f 332//157 338//163 333//158
f 338//163 339//164 333//158
f 333//158 339//164 317//159
f 339//164 318//127 317//159
f 291//130 283//129 334//144
f 283//129 282//165 334//144
f 334//144 282//165 335//160
f 282//165 281//166 335//160
f 335//160 281//166 336//161
f 281//166 280//167 336//161
f 336//161 280//167 337//162
f 280//167 279//168 337//162
f 337//162 279//168 338//163
f 279//168 278//169 338//163
f 338//163 278//169 339//164
f 278//169 277//170 339//164
f 339//164 277//170 318//127
f 277//170 106//125 318//127
f 312//132 305//171 108//133
f 313//145 340//172 312//132
f 314//147 341//173 313//145
f 315//150 343//174 314//147
f 316//154 346//175 315//150
f 317//159 350//176 316//154
f 318//127 355//177 317//159
f 312//132 340//172 305//171
f 340//172 306//178 305//171
f 313//145 341//173 340//172
f 341//173 342//179 340//172
f 340//172 342//179 306//178
f 342//179 307//180 306//178
f 314//147 343//174 341//173
f 343//174 344//181 341//173
f 341//173 344//181 342//179
f 344//181 345//182 342//179
f 342//179 345//182 307//180
f 345//182 308//183 307//180
f 315//150 346//175 343//174
f 346//175 347//184 343//174
f 343//174 347//184 344//181
f 347//184 348//185 344//181
f 344//181 348//185 345//182
f 348//185 349//186 345//182
f 345//182 349//186 308//183
f 349//186 309//187 308//183
f 316//154 350//176 346//175
f 350//176 351//188 346//175
f 346//175 351//188 347//184
f 351//188 352//189 347//184
f 347//184 352//189 348//185
f 352//189 353//190 348//185
f 348//185 353//190 349//186
f 353//190 354//191 349//186
f 349//186 354//191 309//187
f 354//191 310//192 309//187
f 317//159 355//177 350//176
f 355//177 356//193 350//176
f 350//176 356//193 351//188
f 356//193 357//194 351//188
f 351//188 357//194 352//189
f 357//194 358//195 352//189
f 352//189 358//195 353//190
f 358//195 359//196 353//190
f 353//190 359//196 354//191
f 359//196 360//197 354//191
f 354//191 360//197 310//192
f 360//197 311//124 310//192
f 318//127 276//126 355//177
f 276//126 275//198 355//177
f 355//177 275//198 356//193
f 275//198 274//199 356//193
f 356//193 274//199 357//194
f 274//199 273//200 357//194
f 357//194 273//200 358//195
f 273//200 272//201 358//195
f 358//195 272//201 359//196
f 272//201 271//202 359//196
f 359//196 271//202 360//197
f 271//202 270//203 360//197
f 360//197 270//203 311//124
f 270//203 105//122 311//124
f 305//171 298//204 108//133
f 306//178 361//205 305//171
f 307//180 362//206 306//178
f 308//183 364//207 307//180
f 309//187 367//208 308//183
f 310//192 371//209 309//187
f 311//124 376//210 310//192
f 305//171 361//205 298//204
f 361//205 299//211 298//204
f 306//178 362//206 361//205
f 362//206 363//212 361//205
f 361//205 363//212 299//211
f 363//212 300//213 299//211
f 307//180 364//207 362//206
f 364//207 365//214 362//206
f 362//206 365//214 363//212
f 365//214 366//215 363//212
f 363//212 366//215 300//213
f 366//215 301//216 300//213
f 308//183 367//208 364//207
f 367//208 368//217 364//207
f 364//207 368//217 365//214
f 368//217 369//218 365//214
f 365//214 369//218 366//215
f 369//218 370//219 366//215
f 366//215 370//219 301//216
f 370//219 302//220 301//216
f 309//187 371//209 367//208
f 371//209 372//221 367//208
f 367//208 372//221 368//217
f 372//221 373//222 368//217
f 368//217 373//222 369//218
f 373//222 374//223 369//218
f 369//218 374//223 370//219
f 374//223 375//224 370//219
f 370//219 375//224 302//220
f 375//224 303//225 302//220
f 310//192 376//210 371//209
f 376//210 377//226 371//209
f 371//209 377//226 372//221
f 377//226 378//227 372//221
f 372//221 378//227 373//222
f 378//227 379//228 373//222
f 373//222 379//228 374//223
f 379//228 380//229 374//223
f 374//223 380//229 375//224
f 380//229 381//230 375//224
f 375//224 381//230 303//225
f 381//230 304//121 303//225
f 311//124 269//123 376//210
f 269//123 268//231 376//210
f 376//210 268//231 377//226
f 268//231 267//232 377//226
f 377//226 267//232 378//227
f 267//232 266//233 378//227
f 378//227 266//233 379//228
f 266//233 265//234 379//228
f 379//228 265//234 380//229
f 265//234 264//235 380//229
f 380//229 264//235 381//230
f 264//235 263//236 381//230
f 381//230 263//236 304//121
f 263//236 104//119 304//121
f 298//204 284//237 108//133
f 299//211 382//238 298//204
f 300//213 383//239 299//211
f 301//216 385//240 300//213
f 302//220 388//241 301//216
f 303//225 392//242 302//220
f 304//121 397//243 303//225
f 298//204 382//238 284//237
f 382//238 285//244 284//237
f 299//211 383//239 382//238
f 383//239 384//245 382//238
f 382//238 384//245 285//244
f 384//245 286//246 285//244
f 300//213 385//240 383//239
f 385//240 386//247 383//239
f 383//239 386//247 384//245
f 386//247 387//248 384//245
f 384//245 387//248 286//246
f 387//248 287//249 286//246
f 301//216 388//241 385//240
f 388//241 389//250 385//240
f 385//240 389//250 386//247
f 389//250 390//251 386//247
f 386//247 390//251 387//248
f 390//251 391//252 387//248
f 387//248 391//252 287//249
f 391//252 288//253 287//249
f 302//220 392//242 388//241
f 392//242 393//254 388//241
f 388//241 393//254 389//250
f 393//254 394//255 389//250
f 389//250 394//255 390//251
f 394//255 395//256 390//251
f 390//251 395//256 391//252
f 395//256 396//257 391//252
f 391//252 396//257 288//253
f 396//257 289//258 288//253
f 303//225 397//243 392//242
f 397//243 398//259 392//242
f 392//242 398//259 393//254
f 398//259 399//260 393//254
f 393//254 399//260 394//255
f 399//260 400//261 394//255
f 394//255 400//261 395//256
f 400//261 401//262 395//256
f 395//256 401//262 396//257
f 401//262 402//263 396//257
f 396//257 402//263 289//258
f 402//263 290//118 289//258
f 304//121 262//120 397//243
f 262//120 261//264 397//243
f 397//243 261//264 398//259
f 261//264 260//265 398//259
f 398//259 260//265 399//260
f 260//265 259//266 399//260
f 399//260 259//266 400//261
f 259//266 258//267 400//261
f 400//261 258//267 401//262
f 258//267 257//268 401//262
f 401//262 257//268 402//263
f 257//268 256//269 402//263
f 402//263 256//269 290//118
f 256//269 103//116 290//118
f 284//237 297//131 108//133
f 285//244 403//270 284//237
f 286//246 404//271 285//244
f 287//249 406//272 286//246
f 288//253 409//273 287//249
f 289//258 413//274 288//253
f 290//118 418//275 289//258
f 284//237 403//270 297//131
f 403//270 296//134 297//131
f 285//244 404//271 403//270
f 404//271 405//276 403//270
f 403//270 405//276 296//134
f 405//276 295//136 296//134
f 286//246 406//272 404//271
f 406//272 407//277 404//271
f 404//271 407//277 405//276
f 407//277 408//278 405//276
f 405//276 408//278 295//136
f 408//278 294//138 295//136
f 287//249 409//273 406//272
f 409//273 410//279 406//272
f 406//272 410//279 407//277
f 410//279 411//280 407//277
f 407//277 411//280 408//278
f 411//280 412//281 408//278
f 408//278 412//281 294//138
f 412//281 293//140 294//138
f 288//253 413//274 409//273
f 413//274 414//282 409//273
f 409//273 414//282 410//279
f 414//282 415//283 410//279
f 410//279 415//283 411//280
f 415//283 416//284 411//280
f 411//280 416//284 412//281
f 416//284 417//285 412//281
f 412//281 417//285 293//140
f 417//285 292//142 293//140
f 289//258 418//275 413//274
f 418//275 419//286 413//274
f 413//274 419//286 414//282
f 419//286 420//287 414//282
f 414//282 420//287 415//283
f 420//287 421//288 415//283
f 415//283 421//288 416//284
f 421//288 422//289 416//284
f 416//284 422//289 417//285
f 422//289 423//290 417//285
f 417//285 423//290 292//142
f 423//290 291//130 292//142
f 290//118 255//117 418//275
f 255//117 254//291 418//275
f 418//275 254//291 419//286
f 254//291 253//292 419//286
f 419//286 253//292 420//287
f 253//292 252//293 420//287
f 420//287 252//293 421//288
f 252//293 251//294 421//288
f 421//288 251//294 422//289
f 251//294 250//295 422//289
f 422//289 250//295 423//290
f 250//295 249//296 423//290
f 423//290 249//296 291//130
f 249//296 107//128 291//130
f 192//297 283//129 107//128
f 191//298 424//299 192//297
f 190//300 425//301 191//298
f 189//302 427//303 190//300
f 188//304 430//305 189//302
f 187//306 434//307 188//304
f 186//115 439//308 187//306
f 192//297 424//299 283//129
f 424//299 282//165 283//129
f 191//298 425//301 424//299
f 425//301 426//309 424//299
f 424//299 426//309 282//165
f 426//309 281//166 282//165
f 190//300 427//303 425//301
f 427//303 428//310 425//301
f 425//301 428//310 426//309
f 428//310 429//311 426//309
f 426//309 429//311 281//166
f 429//311 280//167 281//166
f 189//302 430//305 427//303
f 430//305 431//312 427//303
f 427//303 431//312 428//310
f 431//312 432//313 428//310
f 428//310 432//313 429//311
f 432//313 433//314 429//311
f 429//311 433//314 280//167
f 433//314 279//168 280//167
f 188//304 434//307 430//305
f 434//307 435//315 430//305
f 430//305 435//315 431//312
f 435//315 436//316 431//312
f 431//312 436//316 432//313
f 436//316 437//317 432//313
f 432//313 437//317 433//314
f 437//317 438//318 433//314
f 433//314 438//318 279//168
f 438//318 278//169 279//168
f 187//306 439//308 434//307
f 439//308 440//319 434//307
f 434//307 440//319 435//315
f 440//319 441//320 435//315
f 435//315 441//320 436//316
f 441//320 442//321 436//316
f 436//316 442//321 437//317
f 442//321 443//322 437//317
f 437//317 443//322 438//318
f 443//322 444//323 438//318
f 438//318 444//323 278//169
f 444//323 277//170 278//169
f 186//115 241//110 439//308
f 241//110 240//324 439//308
f 439//308 240//324 440//319
f 240//324 239//325 440//319
f 440//319 239//325 441//320
f 239//325 238//326 441//320
f 441//320 238//326 442//321
f 238//326 237//327 442//321
f 442//321 237//327 443//322
f 237//327 236//328 443//322
f 443//322 236//328 444//323
f 236//328 235//329 444//323
f 444//323 235//329 277//170
f 235//329 106//125 277//170
f 248//330 276//126 106//125
f 247//331 445//332 248//330
f 246//333 446//334 247//331
f 245//335 448//336 246//333
f 244//337 451//338 245//335
f 243//339 455//340 244//337
f 242//114 460//341 243//339
f 248//330 445//332 276//126
f 445//332 275//198 276//126
f 247//331 446//334 445//332
f 446//334 447//342 445//332
f 445//332 447//342 275//198
f 447//342 274//199 275//198
f 246//333 448//336 446//334
f 448//336 449//343 446//334
f 446//334 449//343 447//342
f 449//343 450//344 447//342
f 447//342 450//344 274//199
f 450//344 273//200 274//199
f 245//335 451//338 448//336
f 451//338 452//345 448//336
f 448//336 452//345 449//343
f 452//345 453//346 449//343
f 449//343 453//346 450//344
f 453//346 454//347 450//344
f 450//344 454//347 273//200
f 454//347 272//201 273//200
f 244//337 455//340 451//338
f 455//340 456//348 451//338
f 451//338 456//348 452//345
f 456//348 457//349 452//345
f 452//345 457//349 453//346
f 457//349 458//350 453//346
f 453//346 458//350 454//347
f 458//350 459//351 454//347
f 454//347 459//351 272//201
f 459//351 271//202 272//201
f 243//339 460//341 455//340
f 460//341 461//352 455//340
f 455//340 461//352 456//348
f 461//352 462//353 456//348
f 456//348 462//353 457//349
f 462//353 463//354 457//349
f 457//349 463//354 458//350
f 463//354 464//355 458//350
f 458//350 464//355 459//351
f 464//355 465//356 459//351
f 459//351 465//356 271//202
f 465//356 270//203 271//202
f 242//114 227//107 460//341
f 227//107 226//357 460//341
f 460//341 226//357 461//352
f 226//357 225//358 461//352
f 461//352 225//358 462//353
f 225//358 224//359 462//353
f 462//353 224//359 463//354
f 224//359 223//360 463//354
f 463//354 223//360 464//355
f 223//360 222//361 464//355
f 464//355 222//361 465//356
f 222//361 221//362 465//356
f 465//356 221//362 270//203
f 221//362 105//122 270//203
f 234//363 269//123 105//122
f 233//364 466//365 234//363
f 232//366 467//367 233//364
f 231//368 469//369 232//366
f 230//370 472//371 231//368
f 229//372 476//373 230//370
f 228//113 481//374 229//372
f 234//363 466//365 269//123
f 466//365 268//231 269//123
f 233//364 467//367 466//365
f 467//367 468//375 466//365
f 466//365 468//375 268//231
f 468//375 267//232 268//231
f 232//366 469//369 467//367
f 469//369 470//376 467//367
f 467//367 470//376 468//375
f 470//376 471//377 468//375
f 468//375 471//377 267//232
f 471//377 266//233 267//232
f 231//368 472//371 469//369
f 472//371 473//378 469//369
f 469//369 473//378 470//376
f 473//378 474//379 470//376
f 470//376 474//379 471//377
f 474//379 475//380 471//377
f 471//377 475//380 266//233
f 475//380 265//234 266//233
f 230//370 476//373 472//371
f 476//373 477//381 472//371
f 472//371 477//381 473//378
f 477//381 478//382 473//378
f 473//378 478//382 474//379
f 478//382 479//383 474//379
f 474//379 479//383 475//380
f 479//383 480//384 475//380
f 475//380 480//384 265//234
f 480//384 264//235 265//234
f 229//372 481//374 476//373
f 481//374 482//385 476//373
f 476//373 482//385 477//381
f 482//385 483//386 477//381
f 477//381 483//386 478//382
f 483//386 484//387 478//382
f 478//382 484//387 479//383
f 484//387 485//388 479//383
f 479//383 485//388 480//384
f 485//388 486//389 480//384
f 480//384 486//389 264//235
f 486//389 263//236 264//235
f 228//113 213//104 481//374
f 213//104 212//390 481//374
f 481//374 212//390 482//385
f 212//390 211//391 482//385
f 482//385 211//391 483//386
f 211//391 210//392 483//386
f 483//386 210//392 484//387
f 210//392 209//393 484//387
f 484//387 209//393 485//388
f 209//393 208//394 485//388
f 485//388 208//394 486//389
f 208//394 207//395 486//389
f 486//389 207//395 263//236
f 207//395 104//119 263//236
f 220//396 262//120 104//119
f 219//397 487//398 220//396
f 218//399 488//400 219//397
f 217//401 490//402 218//399
f 216//403 493//404 217//401
f 215//405 497//406 216//403
f 214//112 502//407 215//405
f 220//396 487//398 262//120
f 487//398 261//264 262//120
f 219//397 488//400 487//398
f 488//400 489//408 487//398
f 487//398 489//408 261//264
f 489//408 260//265 261//264
f 218//399 490//402 488//400
f 490//402 491//409 488//400
f 488//400 491//409 489//408
f 491//409 492//410 489//408
f 489//408 492//410 260//265
f 492//410 259//266 260//265
f 217//401 493//404 490//402
f 493//404 494//411 490//402
f 490//402 494//411 491//409
f 494//411 495//412 491//409
f 491//409 495//412 492//410
f 495//412 496//413 492//410
f 492//410 496//413 259//266
f 496//413 258//267 259//266
f 216//403 497//406 493//404
f 497//406 498//414 493//404
f 493//404 498//414 494//411
f 498//414 499//415 494//411
f 494//411 499//415 495//412
f 499//415 500//416 495//412
f 495//412 500//416 496//413
f 500//416 501//417 496//413
f 496//413 501//417 258//267
f 501//417 257//268 258//267
f 215//405 502//407 497//406
f 502//407 503//418 497//406
f 497//406 503//418 498//414
f 503//418 504//419 498//414
f 498//414 504//419 499//415
f 504//419 505//420 499//415
f 499//415 505//420 500//416
f 505//420 506//421 500//416
f 500//416 506//421 501//417
f 506//421 507//422 501//417
f 501//417 507//422 257//268
f 507//422 256//269 257//268
f 214//112 199//101 502//407
f 199//101 198//423 502//407
f 502//407 198//423 503//418
f 198//423 197//424 503//418
f 503//418 197//424 504//419
f 197//424 196//425 504//419
f 504//419 196//425 505//420
f 196//425 195//426 505//420
f 505//420 195//426 506//421
f 195//426 194//427 506//421
f 506//421 194//427 507//422
f 194//427 193//428 507//422
f 507//422 193//428 256//269
f 193//428 103//116 256//269
f 206//429 255//117 103//116
f 205//430 508//431 206//429
f 204//432 509//433 205//430
f 203//434 511//435 204//432
f 202//436 514//437 203//434
f 201//438 518//439 202//436
f 200//111 523//440 201//438
f 206//429 508//431 255//117
f 508//431 254//291 255//117
f 205//430 509//433 508//431
f 509//433 510//441 508//431
f 508//431 510//441 254//291
f 510//441 253//292 254//291
f 204//432 511//435 509//433
f 511//435 512//442 509//433
f 509//433 512//442 510//441
f 512//442 513//443 510//441
f 510//441 513//443 253//292
f 513//443 252//293 253//292
f 203//434 514//437 511//435
f 514//437 515//444 511//435
f 511//435 515//444 512//442
f 515//444 516//445 512//442
f 512//442 516//445 513//443
f 516//445 517//446 513//443
f 513//443 517//446 252//293
f 517//446 251//294 252//293
f 202//436 518//439 514//437
f 518//439 519//447 514//437
f 514//437 519//447 515//444
f 519//447 520//448 515//444
f 515//444 520//448 516//445
f 520//448 521//449 516//445
f 516//445 521//449 517//446
f 521//449 522//450 517//446
f 517//446 522//450 251//294
f 522//450 250//295 251//294
f 201//438 523//440 518//439
f 523//440 524//451 518//439
f 518//439 524//451 519//447
f 524//451 525//452 519//447
f 519//447 525//452 520//448
f 525//452 526//453 520//448
f 520//448 526//453 521//449
f 526//453 527//454 521//449
f 521//449 527//454 522//450
f 527//454 528//455 522//450
f 522//450 528//455 250//295
f 528//455 249//296 250//295
f 200//111 185//98 523//440
f 185//98 184//456 523//440
f 523//440 184//456 524//451
f 184//456 183//457 524//451
f 524//451 183//457 525//452
f 183//457 182//458 525//452
f 525//452 182//458 526//453
f 182//458 181//459 526//453
f 526//453 181//459 527//454
f 181//459 180//460 527//454
f 527//454 180//460 528//455
f 180//460 179//461 528//455
f 528//455 179//461 249//296
f 179//461 107//128 249//296
f 235//329 248//330 106//125
f 236//328 529//462 235//329
f 237//327 530//463 236//328
f 238//326 532//464 237//327
f 239//325 535//465 238//326
f 240//324 539//466 239//325
f 241//110 544//467 240//324
f 235//329 529//462 248//330
f 529//462 247//331 248//330
f 236//328 530//463 529//462
f 530//463 531//468 529//462
f 529//462 531//468 247//331
f 531//468 246//333 247//331
f 237//327 532//464 530//463
f 532//464 533//469 530//463
f 530//463 533//469 531//468
f 533//469 534//470 531//468
f 531//468 534//470 246//333
f 534//470 245//335 246//333
f 238//326 535//465 532//464
f 535//465 536//471 532//464
f 532//464 536//471 533//469
f 536//471 537//472 533//469
f 533//469 537//472 534//470
f 537//472 538//473 534//470
f 534//470 538//473 245//335
f 538//473 244//337 245//335
f 239//325 539//466 535//465
f 539//466 540//474 535//465
f 535//465 540//474 536//471
f 540//474 541//475 536//471
f 536//471 541//475 537//472
f 541//475 542//476 537//472
f 537//472 542//476 538//473
f 542//476 543//477 538//473
f 538//473 543//477 244//337
f 543//477 243//339 244//337
f 240//324 544//467 539//466
f 544//467 545//478 539//466
f 539//466 545//478 540//474
f 545//478 546//479 540//474
f 540//474 546//479 541//475
f 546//479 547//480 541//475
f 541//475 547//480 542//476
f 547//480 548//481 542//476
f 542//476 548//481 543//477
f 548//481 549//482 543//477
f 543//477 549//482 243//339
f 549//482 242//114 243//339
f 241//110 178//109 544//467
f 178//109 177//483 544//467
f 544//467 177//483 545//478
f 177//483 176//484 545//478
f 545//478 176//484 546//479
f 176//484 175//485 546//479
f 546//479 175//485 547//480
f 175//485 174//486 547//480
f 547//480 174//486 548//481
f 174//486 173//487 548//481
f 548//481 173//487 549//482
f 173//487 172//488 549//482
f 549//482 172//488 242//114
f 172//488 101//105 242//114
f 221//362 234//363 105//122
f 222//361 550//489 221//362
f 223//360 551//490 222//361
f 224//359 553//491 223//360
f 225//358 556//492 224//359
f 226//357 560//493 225//358
f 227//107 565//494 226//357
f 221//362 550//489 234//363
f 550//489 233//364 234//363
f 222//361 551//490 550//489
f 551//490 552//495 550//489
f 550//489 552//495 233//364
f 552//495 232//366 233//364
f 223//360 553//491 551//490
f 553//491 554//496 551//490
f 551//490 554//496 552//495
f 554//496 555//497 552//495
f 552//495 555//497 232//366
f 555//497 231//368 232//366
f 224//359 556//492 553//491
f 556//492 557//498 553//491
f 553//491 557//498 554//496
f 557//498 558//499 554//496
f 554//496 558//499 555//497
f 558//499 559//500 555//497
f 555//497 559//500 231//368
f 559//500 230//370 231//368
f 225//358 560//493 556//492
f 560//493 561//501 556//492
f 556//492 561//501 557//498
f 561//501 562//502 557//498
f 557//498 562//502 558//499
f 562//502 563//503 558//499
f 558//499 563//503 559//500
f 563//503 564//504 559//500
f 559//500 564//504 230//370
f 564//504 229//372 230//370
f 226//357 565//494 560//493
f 565//494 566//505 560//493
f 560//493 566//505 561//501
f 566//505 567//506 561//501
f 561//501 567//506 562//502
f 567//506 568//507 562//502
f 562//502 568//507 563//503
f 568//507 569//508 563//503
f 563//503 569//508 564//504
f 569//508 570//509 564//504
f 564//504 570//509 229//372
f 570//509 228//113 229//372
f 227//107 171//106 565//494
f 171//106 170//510 565//494
f 565//494 170//510 566//505
f 170//510 169//511 566//505
f 566//505 169//511 567//506
f 169//511 168//512 567//506
f 567//506 168//512 568//507
f 168//512 167//513 568//507
f 568//507 167//513 569//508
f 167//513 166//514 569//508
f 569//508 166//514 570//509
f 166//514 165//515 570//509
f 570//509 165//515 228//113
f 165//515 100//102 228//113
f 207//395 220//396 104//119
f 208//394 571//516 207//395
f 209//393 572//517 208//394
f 210//392 574//518 209//393
f 211//391 577//519 210//392
f 212//390 581//520 211//391
f 213//104 586//521 212//390
f 207//395 571//516 220//396
f 571//516 219//397 220//396
f 208//394 572//517 571//516
f 572//517 573//522 571//516
f 571//516 573//522 219//397
f 573//522 218//399 219//397
f 209//393 574//518 572//517
f 574//518 575//523 572//517
f 572//517 575//523 573//522
f 575//523 576//524 573//522
f 573//522 576//524 218//399
f 576//524 217//401 218//399
f 210//392 577//519 574//518
f 577//519 578//525 574//518
f 574//518 578//525 575//523
f 578//525 579//526 575//523
f 575//523 579//526 576//524
f 579//526 580//527 576//524
f 576//524 580//527 217//401
f 580//527 216//403 217//401
f 211//391 581//520 577//519
f 581//520 582//528 577//519
f 577//519 582//528 578//525
f 582//528 583//529 578//525
f 578//525 583//529 579//526
f 583//529 584//530 579//526
f 579//526 584//530 580//527
f 584//530 585//531 580//527
f 580//527 585//531 216//403
f 585//531 215//405 216//403
f 212//390 586//521 581//520
f 586//521 587//532 581//520
f 581//520 587//532 582//528
f 587//532 588//533 582//528
f 582//528 588//533 583//529
f 588//533 589//534 583//529
f 583//529 589//534 584//530
f 589//534 590//535 584//530
f 584//530 590//535 585//531
f 590//535 591//536 585//531
f 585//531 591//536 215//405
f 591//536 214//112 215//405
f 213//104 157//103 586//521
f 157//103 156//537 586//521
f 586//521 156//537 587//532
f 156//537 155//538 587//532
f 587//532 155//538 588//533
f 155//538 154//539 588//533
f 588//533 154//539 589//534
f 154//539 153//540 589//534
f 589//534 153//540 590//535
f 153//540 152//541 590//535
f 590//535 152//541 591//536
f 152//541 151//542 591//536
f 591//536 151//542 214//112
f 151//542 99//99 214//112
f 193//428 206//429 103//116
f 194//427 592//543 193//428
f 195//426 593//544 194//427
f 196//425 595//545 195//426
f 197//424 598//546 196//425
f 198//423 602//547 197//424
f 199//101 607//548 198//423
f 193//428 592//543 206//429
f 592//543 205//430 206//429
f 194//427 593//544 592//543
f 593//544 594//549 592//543
f 592//543 594//549 205//430
f 594//549 204//432 205//430
f 195//426 595//545 593//544
f 595//545 596//550 593//544
f 593//544 596//550 594//549
f 596//550 597//551 594//549
f 594//549 597//551 204//432
f 597//551 203//434 204//432
f 196//425 598//546 595//545
f 598//546 599//552 595//545
f 595//545 599//552 596//550
f 599//552 600//553 596//550
f 596//550 600//553 597//551
f 600//553 601//554 597//551
f 597//551 601//554 203//434
f 601//554 202//436 203//434
f 197//424 602//547 598//546
f 602//547 603//555 598//546
f 598//546 603//555 599//552
f 603//555 604//556 599//552
f 599//552 604//556 600//553
f 604//556 605//557 600//553
f 600//553 605//557 601//554
f 605//557 606//558 601//554
f 601//554 606//558 202//436
f 606//558 201//438 202//436
f 198//423 607//548 602//547
f 607//548 608//559 602//547
f 602//547 608//559 603//555
f 608//559 609//560 603//555
f 603//555 609//560 604//556
f 609//560 610//561 604//556
f 604//556 610//561 605//557
f 610//561 611//562 605//557
f 605//557 611//562 606//558
f 611//562 612//563 606//558
f 606//558 612//563 201//438
f 612//563 200//111 201//438
f 199//101 129//100 607//548
f 129//100 128//564 607//548
f 607//548 128//564 608//559
f 128//564 127//565 608//559
f 608//559 127//565 609//560
f 127//565 126//566 609//560
f 609//560 126//566 610//561
f 126//566 125//567 610//561
f 610//561 125//567 611//562
f 125//567 124//568 611//562
f 611//562 124//568 612//563
f 124//568 123//569 612//563
f 612//563 123//569 200//111
f 123//569 98//92 200//111
f 179//461 192//297 107//128
f 180//460 613//570 179//461
f 181//459 614//571 180//460
f 182//458 616//572 181//459
f 183//457 619//573 182//458
f 184//456 623//574 183//457
f 185//98 628//575 184//456
f 179//461 613//570 192//297
f 613//570 191//298 192//297
f 180//460 614//571 613//570
f 614//571 615//576 613//570
f 613//570 615//576 191//298
f 615//576 190//300 191//298
f 181//459 616//572 614//571
f 616//572 617//577 614//571
f 614//571 617//577 615//576
f 617//577 618//578 615//576
f 615//576 618//578 190//300
f 618//578 189//302 190//300
f 182//458 619//573 616//572
f 619//573 620//579 616//572
f 616//572 620//579 617//577
f 620//579 621//580 617//577
f 617//577 621//580 618//578
f 621//580 622//581 618//578
f 618//578 622//581 189//302
f 622//581 188//304 189//302
f 183//457 623//574 619//573
f 623//574 624//582 619//573
f 619//573 624//582 620//579
f 624//582 625//583 620//579
f 620//579 625//583 621//580
f 625//583 626//584 621//580
f 621//580 626//584 622//581
f 626//584 627//585 622//581
f 622//581 627//585 188//304
f 627//585 187//306 188//304
f 184//456 628//575 623//574
f 628//575 629//586 623//574
f 623//574 629//586 624//582
f 629//586 630//587 624//582
f 624//582 630//587 625//583
f 630//587 631//588 625//583
f 625//583 631//588 626//584
f 631//588 632//589 626//584
f 626//584 632//589 627//585
f 632//589 633//590 627//585
f 627//585 633//590 187//306
f 633//590 186//115 187//306
f 185//98 136//94 628//575
f 136//94 135//591 628//575
f 628//575 135//591 629//586
f 135//591 134//592 629//586
f 629//586 134//592 630//587
f 134//592 133//593 630//587
f 630//587 133//593 631//588
f 133//593 132//594 631//588
f 631//588 132//594 632//589
f 132//594 131//595 632//589
f 632//589 131//595 633//590
f 131//595 130//596 633//590
f 633//590 130//596 186//115
f 130//596 102//108 186//115
f 143//597 178//109 102//108
f 142//598 634//599 143//597
f 141//600 635//601 142//598
f 140//602 637//603 141//600
f 139//604 640//605 140//602
f 138//606 644//607 139//604
f 137//97 649//608 138//606
f 143//597 634//599 178//109
f 634//599 177//483 178//109
f 142//598 635//601 634//599
f 635//601 636//609 634//599
f 634//599 636//609 177//483
f 636//609 176//484 177//483
f 141//600 637//603 635//601
f 637//603 638//610 635//601
f 635//601 638//610 636//609
f 638//610 639//611 636//609
f 636//609 639//611 176//484
f 639//611 175//485 176//484
f 140//602 640//605 637//603
f 640//605 641//612 637//603
f 637//603 641//612 638//610
f 641//612 642//613 638//610
f 638//610 642//613 639//611
f 642//613 643//614 639//611
f 639//611 643//614 175//485
f 643//614 174//486 175//485
f 139//604 644//607 640//605
f 644//607 645//615 640//605
f 640//605 645//615 641//612
f 645//615 646//616 641//612
f 641//612 646//616 642//613
f 646//616 647//617 642//613
f 642//613 647//617 643//614
f 647//617 648//618 643//614
f 643//614 648//618 174//486
f 648//618 173//487 174//486
f 138//606 649//608 644//607
f 649//608 650//619 644//607
f 644//607 650//619 645//615
f 650//619 651//620 645//615
f 645//615 651//620 646//616
f 651//620 652//621 646//616
f 646//616 652//621 647//617
f 652//621 653//622 647//617
f 647//617 653//622 648//618
f 653//622 654//623 648//618
f 648//618 654//623 173//487
f 654//623 172//488 173//487
f 137//97 164//96 649//608
f 164//96 163//624 649//608
f 649//608 163//624 650//619
f 163//624 162//625 650//619
f 650//619 162//625 651//620
f 162//625 161//626 651//620
f 651//620 161//626 652//621
f 161//626 160//627 652//621
f 652//621 160//627 653//622
f 160//627 159//628 653//622
f 653//622 159//628 654//623
f 159//628 158//629 654//623
f 654//623 158//629 172//488
f 158//629 101//105 172//488
f 158//629 171//106 101//105
f 159//628 655//630 158//629
f 160//627 656//631 159//628
f 161//626 658//632 160//627
f 162//625 661//633 161//626
f 163//624 665//634 162//625
f 164//96 670//635 163//624
f 158//629 655//630 171//106
f 655//630 170//510 171//106
f 159//628 656//631 655//630
f 656//631 657//636 655//630
f 655//630 657//636 170//510
f 657//636 169//511 170//510
f 160//627 658//632 656//631
f 658//632 659//637 656//631
f 656//631 659//637 657//636
f 659//637 660//638 657//636
f 657//636 660//638 169//511
f 660//638 168//512 169//511
f 161//626 661//633 658//632
f 661//633 662//639 658//632
f 658//632 662//639 659//637
f 662//639 663//640 659//637
f 659//637 663//640 660//638
f 663//640 664//641 660//638
f 660//638 664//641 168//512
f 664//641 167//513 168//512
f 162//625 665//634 661//633
f 665//634 666//642 661//633
f 661//633 666//642 662//639
f 666//642 667//643 662//639
f 662//639 667//643 663//640
f 667//643 668//644 663//640
f 663//640 668//644 664//641
f 668//644 669//645 664//641
f 664//641 669//645 167//513
f 669//645 166//514 167//513
f 163//624 670//635 665//634
f 670//635 671//646 665//634
f 665//634 671//646 666//642
f 671//646 672//647 666//642
f 666//642 672//647 667//643
f 672//647 673//648 667//643
f 667//643 673//648 668//644
f 673//648 674//649 668//644
f 668//644 674//649 669//645
f 674//649 675//650 669//645
f 669//645 675//650 166//514
f 675//650 165//515 166//514
f 164//96 150//95 670//635
f 150//95 149//651 670//635
f 670//635 149//651 671//646
f 149//651 148//652 671//646
f 671//646 148//652 672//647
f 148//652 147//653 672//647
f 672//647 147//653 673//648
f 147//653 146//654 673//648
f 673//648 146//654 674//649
f 146//654 145//655 674//649
f 674//649 145//655 675//650
f 145//655 144//656 675//650
f 675//650 144//656 165//515
f 144//656 100//102 165//515
f 144//656 157//103 100//102
f 145//655 676//657 144//656
f 146//654 677//658 145//655
f 147//653 679//659 146//654
f 148//652 682//660 147//653
f 149//651 686//661 148//652
f 150//95 691//662 149//651
f 144//656 676//657 157//103
f 676//657 156//537 157//103
f 145//655 677//658 676//657
f 677//658 678//663 676//657
f 676//657 678//663 156//537
f 678//663 155//538 156//537
f 146//654 679//659 677//658
f 679//659 680//664 677//658
f 677//658 680//664 678//663
f 680//664 681//665 678//663
f 678//663 681//665 155//538
f 681//665 154//539 155//538
f 147//653 682//660 679//659
f 682//660 683//666 679//659
f 679//659 683//666 680//664
f 683//666 684//667 680//664
f 680//664 684//667 681//665
f 684//667 685//668 681//665
f 681//665 685//668 154//539
f 685//668 153//540 154//539
f 148//652 686//661 682//660
f 686//661 687//669 682//660
f 682//660 687//669 683//666
f 687//669 688//670 683//666
f 683//666 688//670 684//667
f 688//670 689//671 684//667
f 684//667 689//671 685//668
f 689//671 690//672 685//668
f 685//668 690//672 153//540
f 690//672 152//541 153//540
f 149//651 691//662 686//661
f 691//662 692//673 686//661
f 686//661 692//673 687//669
f 692//673 693//674 687//669
f 687//669 693//674 688//670
f 693//674 694//675 688//670
f 688//670 694//675 689//671
f 694//675 695//676 689//671
f 689//671 695//676 690//672
f 695//676 696//677 690//672
f 690//672 696//677 152//541
f 696//677 151//542 152//541
f 150//95 115//91 691//662
f 115//91 114//678 691//662
f 691//662 114//678 692//673
f 114//678 113//679 692//673
f 692//673 113//679 693//674
f 113//679 112//680 693//674
f 693//674 112//680 694//675
f 112//680 111//681 694//675
f 694//675 111//681 695//676
f 111//681 110//682 695//676
f 695//676 110//682 696//677
f 110//682 109//683 696//677
f 696//677 109//683 151//542
f 109//683 99//99 151//542
f 130//596 143//597 102//108
f 131//595 697//684 130//596
f 132//594 698//685 131//595
f 133//593 700//686 132//594
f 134//592 703//687 133//593
f 135//591 707//688 134//592
f 136//94 712//689 135//591
f 130//596 697//684 143//597
f 697//684 142//598 143//597
f 131//595 698//685 697//684
f 698//685 699//690 697//684
f 697//684 699//690 142//598
f 699//690 141//600 142//598
f 132//594 700//686 698//685
f 700//686 701//691 698//685
f 698//685 701//691 699//690
f 701//691 702//692 699//690
f 699//690 702//692 141//600
f 702//692 140//602 141//600
f 133//593 703//687 700//686
f 703//687 704//693 700//686
f 700//686 704//693 701//691
f 704//693 705//694 701//691
f 701//691 705//694 702//692
f 705//694 706//695 702//692
f 702//692 706//695 140//602
f 706//695 139//604 140//602
f 134//592 707//688 703//687
f 707//688 708//696 703//687
f 703//687 708//696 704//693
f 708//696 709//697 704//693
f 704//693 709//697 705//694
f 709//697 710//698 705//694
f 705//694 710//698 706//695
f 710//698 711//699 706//695
f 706//695 711//699 139//604
f 711//699 138//606 139//604
f 135//591 712//689 707//688
f 712//689 713//700 707//688
f 707//688 713//700 708//696
f 713//700 714//701 708//696
f 708//696 714//701 709//697
f 714//701 715//702 709//697
f 709//697 715//702 710//698
f 715//702 716//703 710//698
f 710//698 716//703 711//699
f 716//703 717//704 711//699
f 711//699 717//704 138//606
f 717//704 137//97 138//606
f 136//94 122//93 712//689
f 122//93 121//705 712//689
f 712//689 121//705 713//700
f 121//705 120//706 713//700
f 713//700 120//706 714//701
f 120//706 119//707 714//701
f 714//701 119//707 715//702
f 119//707 118//708 715//702
f 715//702 118//708 716//703
f 118//708 117//709 716//703
f 716//703 117//709 717//704
f 117//709 116//90 717//704
f 717//704 116//90 137//97
f 116//90 97//89 137//97
f 109//683 129//100 99//99
f 110//682 718//710 109//683
f 111//681 719//711 110//682
f 112//680 721//712 111//681
f 113//679 724//713 112//680
f 114//678 728//714 113//679
f 115//91 733//715 114//678
f 109//683 718//710 129//100
f 718//710 128//564 129//100
f 110//682 719//711 718//710
f 719//711 720//716 718//710
f 718//710 720//716 128//564
f 720//716 127//565 128//564
f 111//681 721//712 719//711
f 721//712 722//717 719//711
f 719//711 722//717 720//716
f 722//717 723//718 720//716
f 720//716 723//718 127//565
f 723//718 126//566 127//565
f 112//680 724//713 721//712
f 724//713 725//719 721//712
f 721//712 725//719 722//717
f 725//719 726//720 722//717
f 722//717 726//720 723//718
f 726//720 727//721 723//718
f 723//718 727//721 126//566
f 727//721 125//567 126//566
f 113//679 728//714 724//713
f 728//714 729//722 724//713
f 724//713 729//722 725//719
f 729//722 730//723 725//719
f 725//719 730//723 726//720
f 730//723 731//724 726//720
f 726//720 731//724 727//721
f 731//724 732//725 727//721
f 727//721 732//725 125//567
f 732//725 124//568 125//567
f 114//678 733//715 728//714
f 733//715 734//726 728//714
f 728//714 734//726 729//722
f 734//726 735//727 729//722
f 729//722 735//727 730//723
f 735//727 736//728 730//723
f 730//723 736//728 731//724
f 736//728 737//729 731//724
f 731//724 737//729 732//725
f 737//729 738//730 732//725
f 732//725 738//730 124//568
f 738//730 123//569 124//568
f 115//91 116//90 733//715
f 116//90 117//709 733//715
f 733//715 117//709 734//726
f 117//709 118//708 734//726
f 734//726 118//708 735//727
f 118//708 119//707 735//727
f 735//727 119//707 736//728
f 119//707 120//706 736//728
f 736//728 120//706 737//729
f 120//706 121//705 737//729
f 737//729 121//705 738//730
f 121//705 122//93 738//730
f 738//730 122//93 123//569
f 122//93 98//92 123//569
o House_Cube
v 2.550000 2.192365 -3.199999
v 3.000000 0.000000 3.000000
v -3.000000 0.000000 3.000000
v -2.549999 2.192365 -3.200001
v 2.550001 5.675658 -3.199999
v 2.999998 6.000000 3.000002
v -3.000001 6.000000 2.999999
v -2.550000 5.675658 -3.200000
v -0.808353 6.256207 -3.200000
v -0.000002 7.000000 3.000000
v -2.090075 0.600000 -3.200001
v -3.000000 6.000000 -3.000000
v 0.808354 6.256207 -3.199999
v 2.090077 0.600000 -3.200000
v 3.000001 6.000000 -2.999998
v 0.000001 5.476845 -3.199999
v 3.000000 0.000000 -3.000000
v -2.999999 0.000000 -3.000001
v 0.000001 7.000000 -2.999999
vn 0.0000 -1.0000 0.0000
vn 1.0000 -0.0000 0.0000
vn -0.0000 0.0000 1.0000
vn -1.0000 -0.0000 -0.0000
vn -0.4061 0.0000 -0.9138
vn -0.1284 0.3853 -0.9138
vn 0.3733 -0.1600 -0.9138
vn 0.4061 0.0000 -0.9138
vn 0.1284 0.3853 -0.9138
vn -0.3733 -0.1600 -0.9138
vn 0.0000 -0.3162 -0.9487
vn 0.2907 0.1246 -0.9487
vn -0.2907 0.1246 -0.9487
vn -0.3162 0.9487 -0.0000
vn 0.3162 0.9487 0.0000
vn 0.0000 0.0000 -1.0000
usemtl Walls
s off
f 740//731 756//731 755//731
f 753//732 740//732 755//732
f 748//733 745//733 741//733
f 741//734 750//734 756//734
f 741//733 740//733 748//733
f 744//733 748//733 740//733
f 741//734 745//734 750//734
f 740//731 741//731 756//731
f 753//732 744//732 740//732
f 746//735 742//735 756//735 750//735
f 747//736 746//736 750//736 757//736
f 742//737 747//737 757//737 756//737
f 739//738 743//738 753//738 755//738
f 743//739 751//739 757//739 753//739
f 751//740 739//740 755//740 757//740
f 749//741 752//741 755//741 756//741
f 752//742 754//742 757//742 755//742
f 754//743 749//743 756//743 757//743
usemtl Roof
f 750//744 748//744 757//744
f 757//745 744//745 753//745
f 750//744 745//744 748//744
f 757//745 748//745 744//745
usemtl Window
f 742//746 746//746 747//746
f 751//746 743//746 739//746
f 752//746 749//746 754//746
